<svg width="20" height="20" viewBox="0 0 20 20" fill="none" xmlns="http://www.w3.org/2000/svg">
<g clip-path="url(#clip0)">
<path d="M7.05867 5.84267L8 12.6667C8 12.6667 8 14 9.33333 14H10.6667C12 14 12 12.6667 12 12.6667L12.9413 5.84267C12.9413 4 10 4 10 4C10 4 7.05467 4 7.05867 5.84267ZM4.66667 6.66667C2.66667 6.66667 2.66667 8 2.66667 8L4 13.3333H6C7.00667 13.3333 7.05867 12.3133 7.05867 12.3133L6 6.66667H4.66667ZM2 10C2 10 1.176 9.96 0.588 10.5493C0 11.136 0 11.7253 0 11.7253V14.6667H1.176C2.66667 14.6667 2.66667 13.3333 2.66667 13.3333L2 10Z" fill="#F60F1C"/>
<path d="M15.3334 6.66669C17.3334 6.66669 17.3334 8.00002 17.3334 8.00002L16.0001 13.3334H14.0001C12.9934 13.3334 12.9414 12.3134 12.9414 12.3134L14.0001 6.66669H15.3334ZM18.0001 10C18.0001 10 18.8241 9.96002 19.4121 10.5494C20.0001 11.136 20.0001 11.7254 20.0001 11.7254V14.6667H18.8241C17.3334 14.6667 17.3334 13.3334 17.3334 13.3334L18.0001 10Z" fill="#F60F1C"/>
</g>
<defs>
<clipPath id="clip0">
<rect width="20" height="20" fill="white"/>
</clipPath>
</defs>
</svg>
