<svg width="24" height="25" viewBox="0 0 24 25" fill="none" xmlns="http://www.w3.org/2000/svg">
<path d="M20.7271 13.5955C20.7283 12.9913 20.56 12.3988 20.2413 11.8855C19.9225 11.3722 19.4661 10.9586 18.924 10.6918C18.3819 10.4249 17.7758 10.3156 17.1746 10.3761C16.5734 10.4366 16.0013 10.6646 15.5232 11.0341C15.0452 11.4036 14.6804 11.8999 14.4703 12.4664C14.2603 13.033 14.2134 13.6471 14.335 14.2389C14.4567 14.8308 14.7419 15.3767 15.1583 15.8145C15.5748 16.2523 16.1057 16.5644 16.6907 16.7155V17.6319C16.6907 18.7053 16.2643 19.7347 15.5053 20.4937C14.7463 21.2527 13.7169 21.6791 12.6435 21.6791C11.5701 21.6791 10.5406 21.2527 9.78162 20.4937C9.02261 19.7347 8.5962 18.7053 8.5962 17.6319C8.63679 16.6682 8.87233 15.7229 9.28858 14.8529C9.70484 13.9828 10.2932 13.2063 11.018 12.57H10.9089C11.6804 12.0667 12.3166 11.3818 12.7616 10.5754C13.2067 9.76893 13.4471 8.86558 13.4617 7.94458V4.69367C13.4617 4.05136 13.2065 3.43536 12.7523 2.98118C12.2981 2.52701 11.6821 2.27185 11.0398 2.27185H9.81802C9.60392 2.27185 9.39859 2.3569 9.24719 2.5083C9.0958 2.65969 9.01075 2.86502 9.01075 3.07912C9.01075 3.29323 9.0958 3.49856 9.24719 3.64995C9.39859 3.80134 9.60392 3.8864 9.81802 3.8864H11.018C11.2321 3.8864 11.4375 3.97145 11.5889 4.12284C11.7402 4.27423 11.8253 4.47957 11.8253 4.69367V7.94458C11.8253 9.01132 11.403 10.0347 10.6508 10.791C9.89854 11.5474 8.87748 11.9752 7.81075 11.9809V12.57V11.9809C7.28069 11.9838 6.75524 11.8823 6.26443 11.6821C5.77362 11.4819 5.32704 11.1869 4.9502 10.8142C4.57336 10.4414 4.27364 9.99802 4.06815 9.50939C3.86266 9.02077 3.75543 8.49646 3.75257 7.9664V4.69367C3.75257 4.47957 3.83762 4.27423 3.98901 4.12284C4.14041 3.97145 4.34574 3.8864 4.55984 3.8864H5.69439C5.90849 3.8864 6.11382 3.80134 6.26521 3.64995C6.41661 3.49856 6.50166 3.29323 6.50166 3.07912C6.50166 2.86502 6.41661 2.65969 6.26521 2.5083C6.11382 2.3569 5.90849 2.27185 5.69439 2.27185H4.55984C3.92513 2.28329 3.32028 2.54348 2.8755 2.99643C2.43071 3.44938 2.18156 4.05885 2.18166 4.69367V7.94458C2.1793 8.85191 2.39631 9.74637 2.81419 10.5517C3.23208 11.3571 3.83845 12.0495 4.58166 12.57C5.30253 13.2082 5.88679 13.9856 6.29925 14.8555C6.71171 15.7255 6.94384 16.6698 6.98166 17.6319C6.98166 18.3754 7.12811 19.1116 7.41264 19.7985C7.69717 20.4855 8.11422 21.1096 8.63997 21.6354C9.16572 22.1611 9.78987 22.5782 10.4768 22.8627C11.1637 23.1472 11.9 23.2937 12.6435 23.2937C13.387 23.2937 14.1232 23.1472 14.8102 22.8627C15.4971 22.5782 16.1212 22.1611 16.647 21.6354C17.1727 21.1096 17.5898 20.4855 17.8743 19.7985C18.1588 19.1116 18.3053 18.3754 18.3053 17.6319V16.7155C18.9974 16.5368 19.6106 16.1335 20.0488 15.5689C20.4871 15.0043 20.7257 14.3102 20.7271 13.5955ZM17.4544 15.21C17.1351 15.21 16.8229 15.1153 16.5574 14.9379C16.2919 14.7605 16.0849 14.5084 15.9627 14.2133C15.8405 13.9183 15.8086 13.5937 15.8709 13.2805C15.9332 12.9673 16.0869 12.6796 16.3127 12.4538C16.5385 12.228 16.8262 12.0743 17.1394 12.012C17.4526 11.9497 17.7772 11.9816 18.0722 12.1038C18.3673 12.226 18.6194 12.433 18.7968 12.6985C18.9742 12.964 19.0689 13.2762 19.0689 13.5955C19.0689 13.8075 19.0272 14.0175 18.946 14.2133C18.8649 14.4092 18.746 14.5872 18.596 14.7371C18.4461 14.8871 18.2681 15.006 18.0722 15.0871C17.8764 15.1683 17.6664 15.21 17.4544 15.21Z" fill="#4682C0"/>
</svg>
