<svg width="24" height="25" viewBox="0 0 24 25" fill="none" xmlns="http://www.w3.org/2000/svg">
<path d="M9 9.20001H15V11.2H9V9.20001ZM9 13.2H15V15.2H9V13.2Z" fill="#4682C0"/>
<path d="M18 5.61401L19.707 3.90701L18.293 2.49301L16.73 4.05501C15.483 2.90801 13.824 2.20001 12 2.20001C10.176 2.20001 8.517 2.90801 7.27 4.05501L5.707 2.49301L4.293 3.90701L6 5.61401C5.34616 6.6959 5.00037 7.93589 5 9.20001H3V11.2H5V13.2H3V15.2H5C5 19.06 8.141 22.2 12 22.2C15.859 22.2 19 19.06 19 15.2H21V13.2H19V11.2H21V9.20001H19C18.9996 7.93589 18.6538 6.6959 18 5.61401ZM17 13.2V15.2C17 17.957 14.757 20.2 12 20.2C9.243 20.2 7 17.957 7 15.2V9.20001C7 6.44301 9.243 4.20001 12 4.20001C14.757 4.20001 17 6.44301 17 9.20001V13.2Z" fill="#4682C0"/>
</svg>
