<svg width="24" height="24" viewBox="0 0 24 24" fill="none" xmlns="http://www.w3.org/2000/svg">
<path d="M6.16683 22.6333H6.16689L6.16677 22.6257L5.83658 0.865831C5.83793 0.865839 5.83929 0.865848 5.84067 0.865857C5.85159 0.865928 5.86353 0.866029 5.87609 0.866136C5.9047 0.866378 5.93652 0.866649 5.96683 0.866649H18.0002C18.0305 0.866649 18.0623 0.866378 18.0909 0.866136C18.1035 0.866029 18.1154 0.865928 18.1263 0.865857C18.1277 0.865848 18.1291 0.865839 18.1304 0.865831L17.8002 22.6257L17.8002 22.6257V22.6333C17.8002 22.6495 17.7913 22.6851 17.7549 22.7214C17.7186 22.7577 17.683 22.7666 17.6668 22.7666H14.5002C14.484 22.7666 14.4484 22.7577 14.412 22.7214C14.3757 22.6851 14.3668 22.6495 14.3668 22.6333V22.6221L14.3663 22.611L13.7001 7.72113C13.6934 6.80812 12.9296 6.06665 12.0002 6.06665C11.0799 6.06665 10.3067 6.76629 10.3002 7.72122L9.634 22.611L9.6335 22.6221V22.6333C9.6335 22.6495 9.6246 22.6851 9.58827 22.7214C9.55195 22.7577 9.51637 22.7666 9.50016 22.7666H6.30016C6.28395 22.7666 6.24837 22.7577 6.21205 22.7214C6.17573 22.6851 6.16683 22.6495 6.16683 22.6333Z" stroke="#02BF59"/>
<path d="M11.7335 4.40002C11.6335 4.40002 11.5335 4.30002 11.5335 4.20002V1.53335C11.5335 1.43335 11.6335 1.33335 11.7335 1.33335C11.8335 1.33335 11.9335 1.43335 11.9335 1.53335V4.20002C11.9668 4.33335 11.8668 4.40002 11.7335 4.40002ZM12.5335 4.76669C12.5668 4.70002 12.5335 4.63335 12.5002 4.60002C12.4335 4.56669 12.3668 4.60002 12.3335 4.63335C12.2002 4.83335 12.1002 4.93335 12.0002 4.93335C11.9335 4.93335 11.8668 5.00002 11.8668 5.06669C11.8668 5.13335 11.9335 5.20002 12.0002 5.20002C12.1668 5.20002 12.3668 5.06669 12.5335 4.76669ZM12.8668 3.93335C12.9335 3.73335 12.9668 3.53335 12.9668 3.33335C12.9668 3.26669 12.9335 3.20002 12.8668 3.20002C12.8002 3.20002 12.7335 3.23335 12.7335 3.30002C12.7002 3.50002 12.6668 3.66669 12.6335 3.86669C12.6335 3.93335 12.6668 4.00002 12.7335 4.00002H12.7668C12.8002 4.00002 12.8668 3.96669 12.8668 3.93335ZM13.0002 2.43335V1.83335C13.0002 1.76669 12.9335 1.70002 12.8668 1.70002C12.8002 1.70002 12.7335 1.76669 12.7335 1.83335V2.43335C12.7335 2.50002 12.8002 2.56669 12.8668 2.56669C12.9335 2.56669 13.0002 2.50002 13.0002 2.43335ZM18.4668 1.73335C18.4668 1.66669 18.4002 1.60002 18.3335 1.60002H18.0668C18.0002 1.60002 17.9335 1.66669 17.9335 1.73335C17.9335 1.80002 18.0002 1.86669 18.0668 1.86669H18.3335C18.4335 1.86669 18.4668 1.80002 18.4668 1.73335ZM17.3335 1.73335C17.3335 1.66669 17.2668 1.60002 17.2002 1.60002H16.6002C16.5335 1.60002 16.4668 1.66669 16.4668 1.73335C16.4668 1.80002 16.5335 1.86669 16.6002 1.86669H17.2002C17.2668 1.86669 17.3335 1.80002 17.3335 1.73335ZM15.8335 1.73335C15.8335 1.66669 15.7668 1.60002 15.7002 1.60002H15.1002C15.0668 1.60002 15.0002 1.66669 15.0002 1.73335C15.0002 1.80002 15.0668 1.86669 15.1335 1.86669H15.7335C15.8002 1.86669 15.8335 1.80002 15.8335 1.73335ZM14.3668 1.73335C14.3668 1.66669 14.3002 1.60002 14.2335 1.60002H13.6668C13.6002 1.60002 13.5335 1.66669 13.5335 1.73335C13.5335 1.80002 13.6002 1.86669 13.6668 1.86669H14.2668C14.3002 1.86669 14.3668 1.80002 14.3668 1.73335ZM10.8335 1.73335C10.8335 1.66669 10.7668 1.60002 10.7002 1.60002H10.1002C10.0668 1.60002 10.0002 1.66669 10.0002 1.73335C10.0002 1.80002 10.0668 1.86669 10.1335 1.86669H10.7335C10.8002 1.86669 10.8335 1.80002 10.8335 1.73335ZM9.36683 1.73335C9.36683 1.66669 9.30016 1.60002 9.2335 1.60002H8.6335C8.56683 1.60002 8.50016 1.66669 8.50016 1.73335C8.50016 1.80002 8.56683 1.86669 8.6335 1.86669H9.2335C9.30016 1.86669 9.36683 1.80002 9.36683 1.73335ZM7.86683 1.73335C7.86683 1.66669 7.80016 1.60002 7.7335 1.60002H7.1335C7.06683 1.60002 7.00016 1.66669 7.00016 1.73335C7.00016 1.80002 7.06683 1.86669 7.1335 1.86669H7.7335C7.8335 1.86669 7.86683 1.80002 7.86683 1.73335ZM6.40016 1.73335C6.40016 1.66669 6.3335 1.60002 6.26683 1.60002H5.66683C5.60016 1.60002 5.5335 1.66669 5.5335 1.73335C5.5335 1.80002 5.60016 1.86669 5.66683 1.86669H6.26683C6.3335 1.86669 6.40016 1.80002 6.40016 1.73335ZM10.1668 22.2334C10.1335 22.2 10.1002 22.2 10.0335 22.2C8.6335 22.6667 7.1335 22.6667 5.7335 22.2C5.70016 22.2 5.6335 22.2 5.60016 22.2334C5.56683 22.2667 5.5335 22.3 5.5335 22.3334C5.5335 22.7334 5.56683 23.1667 5.6335 23.5667C5.6335 23.6334 5.66683 23.6667 5.7335 23.6667C6.4335 23.8334 7.1335 23.9334 7.86683 23.9334C8.60016 23.9334 9.30016 23.8334 10.0002 23.6667C10.0668 23.6667 10.1002 23.6 10.1002 23.5667C10.1335 23.1667 10.1668 22.7334 10.1668 22.3334C10.2002 22.3 10.2002 22.2334 10.1668 22.2334ZM18.3335 22.2334C18.3002 22.2 18.2668 22.2 18.2002 22.2C16.8002 22.6667 15.3002 22.6667 13.9002 22.2C13.8668 22.2 13.8002 22.2 13.7668 22.2334C13.7335 22.2667 13.7002 22.3 13.7002 22.3334C13.7002 22.7334 13.7335 23.1667 13.7668 23.5667C13.7668 23.6334 13.8002 23.6667 13.8668 23.6667C14.5668 23.8667 15.2668 23.9334 16.0002 23.9334C16.7335 23.9334 17.4335 23.8334 18.1335 23.6667C18.2002 23.6667 18.2335 23.6 18.2335 23.5667C18.3002 23.1667 18.3335 22.7334 18.3335 22.3334C18.4002 22.3 18.3668 22.2334 18.3335 22.2334ZM7.20016 2.76669C7.06683 2.76669 6.96683 2.86669 6.96683 3.00002C6.96683 3.86669 6.30016 4.56669 5.4335 4.63335V5.10002C6.5335 5.03335 7.40016 4.13335 7.40016 3.00002C7.4335 2.86669 7.3335 2.76669 7.20016 2.76669ZM18.5335 4.60002C17.6668 4.56669 17.0002 3.86669 17.0002 3.00002C17.0002 2.86669 16.9002 2.76669 16.7668 2.76669C16.6335 2.76669 16.5335 2.86669 16.5335 3.00002C16.5335 4.10002 17.4002 5.03335 18.5002 5.10002L18.5335 4.60002ZM18.6335 0.166687H5.3335V0.866687H18.6335V0.166687Z" fill="#02BF59"/>
<path d="M11.7334 2.39996C12.0095 2.39996 12.2334 2.17611 12.2334 1.89996C12.2334 1.62382 12.0095 1.39996 11.7334 1.39996C11.4573 1.39996 11.2334 1.62382 11.2334 1.89996C11.2334 2.17611 11.4573 2.39996 11.7334 2.39996Z" fill="#02BF59"/>
</svg>
