<svg width="20" height="20" viewBox="0 0 20 20" fill="none" xmlns="http://www.w3.org/2000/svg">
<g clip-path="url(#clip0)">
<path fill-rule="evenodd" clip-rule="evenodd" d="M9.52617 1.17645C4.93926 1.17645 1.22021 5.23057 1.22021 8.37057C1.22021 11.507 4.93926 11.7459 9.52617 11.7459C14.1143 11.7459 17.8333 11.507 17.8333 8.37057C17.8321 5.23057 14.1131 1.17645 9.52617 1.17645Z" fill="#F60F1C"/>
<path fill-rule="evenodd" clip-rule="evenodd" d="M9.43091 13.14C8.18448 13.14 7.01186 13.1176 5.98805 13.0047C5.98686 13.107 5.9821 13.207 5.9821 13.3094C5.9821 17.0059 1.72139 20.0012 9.48805 20.0012C17.2559 20.0012 12.9964 17.0059 12.9964 13.3094C12.9976 13.2012 12.9928 13.0953 12.9916 12.9882C11.9392 13.1141 10.7261 13.14 9.43091 13.14Z" fill="#F60F1C"/>
</g>
<defs>
<clipPath id="clip0">
<rect width="19.0476" height="20" fill="white"/>
</clipPath>
</defs>
</svg>
