<svg width="15" height="24" viewBox="0 0 15 24" fill="none" xmlns="http://www.w3.org/2000/svg">
<g clip-path="url(#clip0)">
<path d="M2.11266 23.6308H3.33315C4.39716 23.6308 5.06999 23.0769 5.35164 21.9692L7.13542 11.6308L9.06003 22.0615C9.15392 22.5538 9.3808 22.9538 9.74069 23.2615C10.1006 23.5692 10.5309 23.7231 11.0316 23.7231H12.1582C12.6902 23.7231 13.1518 23.5308 13.543 23.1462C13.9341 22.7615 14.1297 22.2923 14.1297 21.7385V1.98462C14.1297 1.43077 13.9341 0.961538 13.543 0.576923C13.1518 0.192308 12.6902 0 12.1582 0H2.11266C1.58066 0 1.11906 0.192308 0.727884 0.576923C0.336704 0.961538 0.141113 1.43077 0.141113 1.98462V21.6462C0.141113 22.2 0.336704 22.6692 0.727884 23.0538C1.11906 23.4385 1.58066 23.6308 2.11266 23.6308ZM10.9377 21.6462L8.35591 6.87692C8.19943 6.23077 7.79261 5.90769 7.13542 5.90769C6.47824 5.90769 6.07141 6.23077 5.91494 6.87692L3.33315 21.6462H2.11266V6.87692C3.39574 6.87692 4.37369 6.56923 5.04652 5.95385C5.71935 5.33846 6.08706 4.69231 6.14965 4.01538V3.92308H9.15392V4.01538C9.2165 4.6 9.49815 5.16923 9.99887 5.72308C10.4996 6.27692 11.2193 6.63077 12.1582 6.78462V21.6462H10.9377ZM12.1582 4.84615C11.5949 4.66154 11.2506 4.35385 11.1255 3.92308H12.1582V4.84615ZM2.11266 1.98462H12.1582V2.95385H2.11266V1.98462ZM2.11266 3.92308H4.13116C3.94339 4.6 3.27056 4.93846 2.11266 4.93846V3.92308Z" fill="#02BF59"/>
</g>
<defs>
<clipPath id="clip0">
<rect width="14.2703" height="24" fill="white"/>
</clipPath>
</defs>
</svg>
