<svg width="24" height="24" viewBox="0 0 24 24" fill="none" xmlns="http://www.w3.org/2000/svg">
<path d="M23 12H17V10L20.39 6H17V4H23V6L19.62 10H23V12ZM15 16H9V14L12.39 10H9V8H15V10L11.62 14H15V16ZM7 20H1V18L4.39 14H1V12H7V14L3.62 18H7V20Z" fill="#4682C0"/>
</svg>
