<svg width="24" height="24" viewBox="0 0 24 24" fill="none" xmlns="http://www.w3.org/2000/svg">
<path d="M15.1062 20.8937C15.7283 20.8937 16.2344 20.3877 16.2344 19.7656V17.436C16.2344 17.3427 16.1974 17.2533 16.1314 17.1874L14.5783 15.6343C14.5124 15.5683 14.4229 15.5313 14.3297 15.5313H9.67034C9.57711 15.5313 9.48767 15.5683 9.42176 15.6343L7.86861 17.1874C7.80266 17.2533 7.76562 17.3427 7.76562 17.436V19.7656C7.76562 20.3877 8.27169 20.8937 8.89376 20.8937H15.1062ZM8.4688 19.7656V17.5815L9.81598 16.2344H14.1841L15.5313 17.5815V19.7656C15.5313 20 15.3406 20.1906 15.1062 20.1906H8.89381C8.65944 20.1906 8.4688 20 8.4688 19.7656Z" fill="#02BF59"/>
<path d="M21.6702 19.7656C21.6702 19.7656 21.6702 19.7656 21.6702 19.7656V11.2235C21.6702 8.1462 19.5415 5.5572 16.6795 4.85047C17.3502 4.36264 17.7874 3.57228 17.7874 2.68128C17.7874 1.2028 16.5846 3.05176e-05 15.1062 3.05176e-05H8.89364C7.4152 3.05176e-05 6.21239 1.20284 6.21239 2.68128C6.21239 3.57139 6.64875 4.36114 7.3184 4.84906C6.48843 5.05292 5.70511 5.41873 5.00325 5.936C4.84696 6.05117 4.81364 6.2713 4.92881 6.42758C4.99776 6.52109 5.10421 6.57059 5.21207 6.57059C5.2845 6.57059 5.35762 6.54828 5.42039 6.50202C6.43195 5.75652 7.63298 5.36248 8.89364 5.36248H9.31861V7.04544C8.86823 7.19356 8.54207 7.61787 8.54207 8.11719C8.54207 8.73922 9.04814 9.24533 9.67017 9.24533C10.2922 9.24533 10.7983 8.73926 10.7983 8.11719C10.7983 7.61787 10.4721 7.19356 10.0217 7.04544V5.36248H13.978V7.04544C13.5276 7.19356 13.2014 7.61787 13.2014 8.11719C13.2014 8.73922 13.7075 9.24533 14.3295 9.24533C14.9516 9.24533 15.4576 8.73926 15.4576 8.11719C15.4576 7.61787 15.1315 7.19356 14.6811 7.04544V5.36248H15.1061C18.3378 5.36248 20.967 7.9917 20.967 11.2234V19.414H19.7654C19.5712 19.414 19.4138 19.5714 19.4138 19.7656C19.4138 19.9597 19.5712 20.1171 19.7654 20.1171H20.9671V20.5421C20.9671 20.7764 20.7765 20.967 20.5423 20.9672C20.5423 20.9672 20.5422 20.9672 20.5421 20.9672H18.2124C18.2123 20.9672 18.2122 20.9672 18.2122 20.9672C17.9781 20.967 17.7876 20.7767 17.7874 20.5426V8.89372C17.7874 8.69956 17.63 8.54216 17.4358 8.54216C17.2417 8.54216 17.0842 8.69956 17.0842 8.89372V20.5421V20.543V21.3187C17.0842 21.553 16.8937 21.7436 16.6595 21.7437C16.6594 21.7437 16.6593 21.7437 16.6592 21.7437H7.34053C7.34048 21.7437 7.34039 21.7437 7.34029 21.7437C7.10601 21.7436 6.91551 21.553 6.91551 21.3187V20.543C6.91551 20.5428 6.91556 20.5424 6.91556 20.5422V8.89372C6.91556 8.69956 6.75815 8.54216 6.564 8.54216C6.36984 8.54216 6.21243 8.69956 6.21243 8.89372V20.5426C6.2122 20.7767 6.02179 20.967 5.78765 20.9672C5.78756 20.9672 5.78751 20.9672 5.78742 20.9672H3.45773C3.45764 20.9672 3.45759 20.9672 3.4575 20.9672C3.22321 20.967 3.03271 20.7764 3.03271 20.5421V20.1171H4.23431C4.42846 20.1171 4.58587 19.9597 4.58587 19.7656C4.58587 19.5714 4.42846 19.414 4.23431 19.414H3.03271V11.2234C3.03271 9.82236 3.53493 8.4664 4.44679 7.40534C4.57336 7.25806 4.55657 7.03611 4.40934 6.90955C4.26206 6.78303 4.0402 6.79976 3.91354 6.947C2.89214 8.13556 2.32959 9.65426 2.32959 11.2234V19.7656V19.7656V19.7657V20.5422C2.32959 21.0415 2.65579 21.4659 3.10617 21.614V22.8719C3.10617 23.0661 3.26357 23.2235 3.45773 23.2235H5.78742C5.98157 23.2235 6.13898 23.0661 6.13898 22.8719V21.614C6.17409 21.6025 6.20845 21.5892 6.24197 21.5744C6.33145 21.959 6.6179 22.2685 6.98897 22.3905V23.6484C6.98897 23.8426 7.14637 24 7.34053 24H16.6593C16.8534 24 17.0108 23.8426 17.0108 23.6484V22.3905C17.3819 22.2685 17.6684 21.9589 17.7578 21.5743C17.7914 21.5892 17.8257 21.6024 17.8608 21.614V22.8719C17.8608 23.066 18.0182 23.2235 18.2124 23.2235H20.5421C20.7362 23.2235 20.8936 23.066 20.8936 22.8719V21.614C21.344 21.4658 21.6702 21.0415 21.6702 20.5422V19.7656ZM9.67022 8.54216C9.43589 8.54216 9.24525 8.35151 9.24525 8.11714C9.24525 7.88281 9.43589 7.69217 9.67022 7.69217C9.90454 7.69217 10.0952 7.88281 10.0952 8.11714C10.0952 8.35151 9.90454 8.54216 9.67022 8.54216ZM14.3296 8.54216C14.0953 8.54216 13.9046 8.35151 13.9046 8.11714C13.9046 7.88281 14.0952 7.69217 14.3296 7.69217C14.5639 7.69217 14.7546 7.88281 14.7546 8.11714C14.7546 8.35151 14.5639 8.54216 14.3296 8.54216ZM8.89364 0.703109H15.1061C16.0769 0.703109 16.8859 1.40619 17.0523 2.32967H14.3296C13.3328 2.32967 12.4619 2.87684 11.9999 3.68619C11.5379 2.87684 10.667 2.32967 9.67022 2.32967H6.94743C7.11389 1.40619 7.92295 0.703109 8.89364 0.703109ZM9.67022 3.88283C9.47606 3.88283 9.31865 4.04023 9.31865 4.23439V4.65936H8.89368C7.92295 4.65936 7.11389 3.95633 6.94748 3.0328H9.67022C10.6409 3.0328 11.45 3.73583 11.6164 4.65936H10.0218V4.23439C10.0218 4.04019 9.86437 3.88283 9.67022 3.88283ZM14.3296 3.88283C14.1354 3.88283 13.978 4.04023 13.978 4.23439V4.65936H12.3834C12.5498 3.73583 13.3589 3.0328 14.3296 3.0328H17.0524C16.8859 3.95633 16.0769 4.65936 15.1062 4.65936H14.6812V4.23439C14.6812 4.04019 14.5237 3.88283 14.3296 3.88283ZM3.80929 22.5203V21.6703H5.43586V22.5203H3.80929ZM7.69209 23.2969V22.4469H16.3077V23.2969H7.69209ZM18.5639 22.5203V21.6703H20.1905V22.5203H18.5639Z" fill="#02BF59"/>
</svg>
