<svg width="24" height="24" viewBox="0 0 24 24" fill="none" xmlns="http://www.w3.org/2000/svg">
<path d="M21 24H3C2.17188 24 1.46484 23.707 0.878906 23.1211C0.292969 22.5352 0 21.8281 0 21V6C0 5.17188 0.292969 4.46484 0.878906 3.87891C1.46484 3.29297 2.17188 3 3 3H4.5L6 0.75C6.28125 0.25 7.28125 0 9 0H15C16.7188 0 17.7188 0.25 18 0.75L19.5 3H21C21.8281 3 22.5352 3.29297 23.1211 3.87891C23.707 4.46484 24 5.17188 24 6V21C24 21.8281 23.707 22.5352 23.1211 23.1211C22.5352 23.707 21.8281 24 21 24ZM7.5 1.5L6 3.75L8.25 6L10.5 3L7.5 1.5ZM9.39844 7.05469C9.00781 7.35156 8.625 7.5 8.25 7.5C7.75 7.5 7.25 7.25 6.75 6.75L5.25 5.25C5.04688 5.04688 4.875 4.79688 4.73438 4.5H3C2.59375 4.5 2.24219 4.64453 1.94531 4.93359C1.64844 5.22266 1.5 5.57812 1.5 6V21C1.5 21.4219 1.64453 21.7773 1.93359 22.0664C2.22266 22.3555 2.57812 22.5 3 22.5H7.5L10.5234 8.03906L9.39844 7.05469ZM16.5 1.5L13.5 3L15.75 6L18 3.75L16.5 1.5ZM22.5 6C22.5 5.57812 22.3516 5.22266 22.0547 4.93359C21.7578 4.64453 21.4062 4.5 21 4.5H19.2422C19.1172 4.79688 18.9531 5.04688 18.75 5.25L17.25 6.75C16.75 7.25 16.25 7.5 15.75 7.5C15.375 7.5 14.9922 7.35156 14.6016 7.05469L13.4531 8.0625L16.5 22.5H21C21.4062 22.5 21.7578 22.3555 22.0547 22.0664C22.3516 21.7773 22.5 21.4219 22.5 21V6Z" fill="#02BF59"/>
</svg>
