<svg width="38" height="41" viewBox="0 0 38 41" fill="none" xmlns="http://www.w3.org/2000/svg">
<path fill-rule="evenodd" clip-rule="evenodd" d="M15.0811 5.92384V39.6651C15.0811 41.445 17.7408 41.445 17.7408 39.6651V5.92384C17.7408 4.14398 15.0811 4.14398 15.0811 5.92384ZM37.7082 9.68799L35.0208 6.32109C34.7675 6.00639 34.3863 5.8226 33.9832 5.8226H20.9489C20.214 5.8226 19.6181 6.41846 19.6181 7.15749C19.6181 7.8933 20.214 8.49239 20.9489 8.49239V8.4911H33.3441L34.9334 10.4812L33.2413 12.4029L20.8981 12.4229C20.1633 12.4242 19.5686 13.0214 19.5705 13.7578C19.5718 14.4949 20.1678 15.0914 20.9032 15.0901L33.8437 15.0701C34.2236 15.0676 34.5875 14.9025 34.8389 14.6168L37.667 11.404C38.0939 10.9204 38.1132 10.1936 37.7082 9.68799ZM28.8264 17.8979C28.5789 17.6574 28.2497 17.5226 27.9039 17.5226H20.9489C20.214 17.5226 19.6181 18.1185 19.6181 18.8575C19.6181 19.5933 20.214 20.1911 20.9489 20.1911H27.367L28.6181 21.4028L27.2648 22.5778L20.8955 22.5978C20.1613 22.6004 19.5666 23.1975 19.5705 23.9353C19.5718 24.6698 20.1665 25.265 20.8994 25.265H20.9045L27.765 25.2437C28.0839 25.2424 28.3912 25.1276 28.6323 24.9187L31.4604 22.4675C31.7439 22.2218 31.9098 21.8717 31.9214 21.495C31.931 21.1197 31.7838 20.7605 31.5131 20.4987L28.8264 17.8979ZM11.7842 12.4255L4.76048 12.4036L3.06771 10.4805L4.65762 8.49174H11.7328C12.4677 8.49174 13.0617 7.89201 13.0617 7.15814C13.0617 6.42104 12.467 5.82324 11.7328 5.82324H4.01792C3.61353 5.82324 3.23229 6.00703 2.97963 6.32173L0.291632 9.68863C-0.112757 10.1936 -0.0941126 10.9204 0.332135 11.4066L3.16221 14.6207C3.41359 14.905 3.7749 15.0688 4.1555 15.0714L11.7778 15.0914H11.781C12.5133 15.0914 13.1067 14.4955 13.1106 13.7617C13.1125 13.0246 12.5191 12.4268 11.7842 12.4255ZM16.3347 0C15.4257 0 14.6883 0.738384 14.6883 1.65024C14.6883 2.56339 15.425 3.30048 16.3347 3.30048C17.2425 3.30048 17.9799 2.56339 17.9799 1.65024C17.9793 0.738384 17.2425 0 16.3347 0Z" fill="#4682C0"/>
</svg>
