<svg width="26" height="24" viewBox="0 0 26 24" fill="none" xmlns="http://www.w3.org/2000/svg">
<path d="M2.28663 1.4841e-07C1.02578 1.4841e-07 2.97547e-07 1.02328 2.97547e-07 2.28105C2.97547e-07 3.53882 1.02578 4.56209 2.28663 4.56209C3.54748 4.56209 4.57326 3.53882 4.57326 2.28105C4.57321 1.02328 3.54743 1.4841e-07 2.28663 1.4841e-07ZM2.28663 3.28837C1.72976 3.28837 1.27674 2.8364 1.27674 2.28095C1.27674 1.72544 1.72981 1.27352 2.28663 1.27352C2.84345 1.27352 3.29652 1.72549 3.29652 2.28095C3.29652 2.8365 2.84345 3.28837 2.28663 3.28837Z" transform="translate(8.61523 19.4379)" fill="#E2110B"/>
<path d="M2.28663 1.4841e-07C1.02578 1.4841e-07 6.6948e-07 1.02328 6.6948e-07 2.28105C6.6948e-07 3.53882 1.02578 4.56209 2.28663 4.56209C3.54748 4.56209 4.57326 3.53882 4.57326 2.28105C4.57321 1.02328 3.54743 1.4841e-07 2.28663 1.4841e-07ZM2.28663 3.28837C1.72976 3.28837 1.27674 2.8364 1.27674 2.28095C1.27674 1.72544 1.72981 1.27352 2.28663 1.27352C2.8435 1.27352 3.29652 1.72549 3.29652 2.28095C3.29652 2.8365 2.84345 3.28837 2.28663 3.28837Z" transform="translate(16.6357 19.4379)" fill="#E2110B"/>
<path d="M9.78657 2.4735e-07H0.638372C0.285797 2.4735e-07 1.1158e-07 0.285099 1.1158e-07 0.636813C1.1158e-07 0.988526 0.285848 1.27363 0.638372 1.27363H9.78657C10.1391 1.27363 10.4249 0.988526 10.4249 0.636813C10.4249 0.285049 10.1391 2.4735e-07 9.78657 2.4735e-07Z" transform="translate(9.69922 7.42847)" fill="#E2110B"/>
<path d="M8.7907 1.85512e-07H0.638372C0.285797 1.85512e-07 9.91822e-08 0.285099 9.91822e-08 0.636813C9.91822e-08 0.988526 0.285797 1.27363 0.638372 1.27363H8.79065C9.14322 1.27363 9.42902 0.988526 9.42902 0.636813C9.42902 0.28515 9.14322 1.85512e-07 8.7907 1.85512e-07Z" transform="translate(10.1973 10.7354)" fill="#E2110B"/>
<path d="M25.7127 4.59107C25.4692 4.293 25.1085 4.12209 24.723 4.12209H4.83836L4.43678 2.1774C4.35294 1.77174 4.07558 1.43112 3.69467 1.26613L0.892707 0.0528873C0.56923 -0.0872813 0.193296 0.0607898 0.0529877 0.383375C-0.0874733 0.706062 0.0609604 1.08113 0.384285 1.22109L3.18629 2.43439L6.27512 17.3915C6.39679 17.9805 6.92268 18.4081 7.52561 18.4081H22.8192C23.1718 18.4081 23.4576 18.123 23.4576 17.7713C23.4576 17.4196 23.1718 17.1345 22.8192 17.1345H7.52566L7.14993 15.3151H22.9374C23.5403 15.3151 24.0662 14.8875 24.1879 14.2985L25.9735 5.65254C26.0512 5.27606 25.9562 4.88909 25.7127 4.59107ZM22.9374 14.0415H6.88693L5.10141 5.39566L24.7229 5.39571L22.9374 14.0415Z" fill="#E2110B"/>
</svg>
