<svg width="8" height="11" viewBox="0 0 8 11" fill="none" xmlns="http://www.w3.org/2000/svg">
<rect width="2" height="5" transform="translate(0 6)" fill="#1C1C1C"/>
<rect width="2" height="8" transform="translate(3 3)" fill="#1C1C1C"/>
<rect width="2" height="11" transform="translate(6)" fill="#1C1C1C"/>
</svg>
