<svg width="49" height="30" viewBox="0 0 49 30" fill="none" xmlns="http://www.w3.org/2000/svg">
<path d="M45.4724 14.5184C45.3377 13.1422 44.3946 12.0413 43.1146 11.6972L40.8915 11.078L39.4094 5.84862C39.2073 4.33486 37.9274 3.16514 36.4453 3.02752L29.3718 2.54587V1.16972C29.3718 0.550459 28.9003 -5.24958e-07 28.2266 -5.24958e-07H8.69029C8.01662 -5.24958e-07 7.54505 0.481651 7.54505 1.16972C7.54505 1.8578 8.01662 2.33945 8.69029 2.33945H27.0814V3.64679V20.4358H1.14523C0.538933 20.4358 -5.13966e-07 20.9174 -5.13966e-07 21.6055C-5.13966e-07 22.2248 0.471566 22.7752 1.14523 22.7752H4.44619C3.83989 23.7385 3.57043 24.8394 3.77253 26.078C3.97463 27.3165 4.64829 28.3486 5.59142 29.1055C6.39982 29.656 7.27559 30 8.21872 30C8.48819 30 8.69029 30 8.95975 29.9312C10.7786 29.656 12.126 28.2798 12.5975 26.5596H32.2686C32.8075 28.555 34.6264 30 36.6474 30C36.9169 30 37.119 30 37.3884 29.9312C39.881 29.5184 41.4978 27.1101 41.0936 24.633C40.9589 24.0138 40.7568 23.3945 40.4199 22.844H43.5188C44.5967 22.844 45.4724 22.5 45.8766 21.9495C46.1461 21.6055 46.2135 21.1927 46.1461 20.7798L45.4724 14.5184ZM37.0516 27.5229C35.7716 27.7294 34.6264 26.9037 34.4243 25.5963C34.2222 24.289 35.0306 23.1193 36.3106 22.9128C36.4453 22.9128 36.58 22.9128 36.7148 22.9128C37.7926 22.9128 38.8031 23.7385 39.0052 24.8395C39.14 26.1468 38.2642 27.3165 37.0516 27.5229ZM32.2012 24.1514H12.6649C12.5302 23.6009 12.3281 23.1193 12.0586 22.7064H28.2266H32.8749C32.538 23.1881 32.3359 23.6697 32.2012 24.1514ZM10.105 26.6284C9.76815 27.1101 9.22922 27.4541 8.62292 27.5917C8.01662 27.6606 7.41032 27.5229 6.93876 27.1789C6.46719 26.8349 6.13036 26.2844 5.99562 25.6651C5.92826 25.0459 6.06299 24.4266 6.39982 23.945C6.73665 23.4633 7.27559 23.1193 7.88189 22.9817C8.01662 22.9817 8.15135 22.9817 8.28609 22.9817C8.75765 22.9817 9.22922 23.1193 9.63342 23.3945C10.105 23.7385 10.4418 24.289 10.5765 24.9083C10.6439 25.4587 10.5092 26.078 10.105 26.6284ZM43.5188 20.4358H29.3718V4.81651L36.2432 5.29817C36.7148 5.29817 37.119 5.71101 37.1863 6.19266C37.1863 6.26147 37.1863 6.33027 37.2537 6.39908L38.9379 12.3165C39.0726 12.7294 39.3421 13.0046 39.7463 13.0734L42.5757 13.8991C42.9799 14.0367 43.2493 14.3807 43.3167 14.7936L43.923 20.4358C43.7883 20.4358 43.6535 20.4358 43.5188 20.4358Z" transform="translate(2.82812)" fill="#707070"/>
<path d="M-5.13966e-07 1.16973C-5.13966e-07 1.78899 0.471566 2.33945 1.14523 2.33945H13.0017C13.608 2.33945 14.147 1.8578 14.147 1.16973C14.147 0.481652 13.6754 5.24958e-07 13.0017 5.24958e-07H1.14523C0.471566 5.24958e-07 -5.13966e-07 0.481652 -5.13966e-07 1.16973Z" transform="translate(5.18555 6.81193)" fill="#707070"/>
<path d="M16.8416 1.16973C16.8416 0.550459 16.3701 0 15.6964 0H1.14523C0.538933 0 2.56983e-07 0.481652 2.56983e-07 1.16973C2.56983e-07 1.8578 0.471566 2.33945 1.14523 2.33945H15.6964C16.3027 2.33945 16.8416 1.8578 16.8416 1.16973Z" transform="translate(0 13.555)" fill="#707070"/>
</svg>
