<svg width="30" height="22" viewBox="0 0 30 22" fill="none" xmlns="http://www.w3.org/2000/svg">
<path fill-rule="evenodd" clip-rule="evenodd" d="M27.5939 5.59488V17.672L22.3502 11.347C21.3269 10.1138 19.4724 11.6442 20.4956 12.8785L26.0681 19.5986H3.93252L9.50553 12.8785C10.5282 11.6442 8.67365 10.1138 7.65096 11.347L2.4078 17.6702V5.59488C2.4078 3.99435 0 3.99435 0 5.59488V18.7177C0 20.5312 1.47237 22 3.28912 22H26.712C28.5276 22 30 20.5312 30 18.7177V5.59488C30 3.99435 27.5939 3.99435 27.5939 5.59488ZM14.1815 12.7456C14.5695 13.0799 15.3613 13.081 15.751 12.7479L28.1815 2.11295C29.2432 1.20475 28.7964 0 27.3985 0H2.60326C1.2071 0 0.759162 1.20011 1.81675 2.10947L14.1815 12.7456ZM24.1466 2.40079L14.9692 10.2531L5.84119 2.40079H24.1466ZM13.5119 16.079C13.5119 16.8996 14.1786 17.5652 15.0017 17.5652C15.8232 17.5652 16.4898 16.9001 16.4898 16.079C16.4898 15.2578 15.8232 14.5939 15.0017 14.5939C14.178 14.5939 13.5119 15.2584 13.5119 16.079Z" fill="#4682C0"/>
</svg>
