<svg width="22" height="22" viewBox="0 0 22 22" fill="none" xmlns="http://www.w3.org/2000/svg">
<path fill-rule="evenodd" clip-rule="evenodd" d="M11.3434 5.84375C11.3434 5.46373 11.6512 5.15625 12.0312 5.15625C12.4109 5.15625 12.7187 5.46373 12.7187 5.84375C12.7187 6.22273 12.4109 6.53056 12.0312 6.53056C11.6512 6.53056 11.3434 6.22273 11.3434 5.84375ZM21.2071 5.8978L20.9174 6.18716C20.9147 6.19016 20.9124 6.19016 20.9093 6.19287C20.3816 6.72091 19.5326 6.72663 18.9939 6.21637L17.2221 4.44357C16.9539 4.17536 16.9539 3.73996 17.2221 3.47175C17.4903 3.20354 17.9257 3.20354 18.1939 3.47175L19.6911 4.96792C19.6924 4.96959 19.6931 4.96792 19.6948 4.96959C19.8287 5.10353 20.0463 5.10353 20.1802 4.96959C20.1846 4.96521 20.1883 4.96861 20.1926 4.96659L20.2343 4.92495C20.7717 4.38818 20.7717 3.51772 20.2343 2.98027L19.0194 1.76541C18.482 1.22796 17.6115 1.22796 17.0747 1.76541L14.7158 4.12431H12.7705H6.87534H3.09375C2.1444 4.12431 1.375 4.8944 1.375 5.84375V18.9059C1.375 19.8553 2.1444 20.6247 3.09375 20.6247H16.1559C17.1056 20.6247 17.8747 19.8553 17.8747 18.9059V10.0647C17.8747 9.87542 17.7209 9.72134 17.5312 9.72134C17.4366 9.72134 17.3503 9.75992 17.2886 9.82205C17.2869 9.82339 17.2876 9.81767 17.2862 9.81836L13.466 13.6379C13.0521 14.0522 12.5388 14.3029 12.0027 14.3976C11.9014 14.4217 11.7963 14.4369 11.6878 14.4369H11.5908C11.5455 14.4378 11.4988 14.4378 11.4535 14.4369H8.9372C8.1782 14.4369 7.56289 13.8215 7.56289 13.0625V10.5462C7.5622 10.5009 7.5622 10.4542 7.56289 10.4092V10.3122C7.56289 10.2034 7.57831 10.0983 7.60216 9.99698C7.69716 9.4612 7.94793 8.94691 8.36219 8.53304L9.82244 7.07244L9.82614 7.07614C9.95001 6.95127 10.1229 6.8747 10.3125 6.8747C10.6926 6.8747 11 7.18253 11 7.56254C11 7.77103 10.9047 7.95631 10.758 8.08221L9.33466 9.50555C9.03487 9.80465 8.90901 10.2065 8.94326 10.5979C8.94257 10.6177 8.9372 10.6365 8.9372 10.6563V11.6872C8.93715 12.4462 9.5535 13.0625 10.3125 13.0625H11.3434C11.3632 13.0625 11.382 13.0575 11.4018 13.0568C11.7935 13.091 12.195 12.9648 12.4942 12.665L16.9092 8.25C17.1572 8.00628 17.4983 7.90591 17.8747 7.90591C18.6343 7.90591 19.25 8.52122 19.25 9.28091V19.2493C19.25 20.7683 18.019 22 16.5003 22H2.75034C1.23131 22 0 20.7683 0 19.2493V5.49966C0 3.98067 1.23131 2.75 2.75034 2.75H14.1451L16.1022 0.792902C16.6391 0.255793 17.3429 0 18.0467 0C18.7506 0 19.4544 0.255793 19.9916 0.792902L21.2071 2.00845C21.7448 2.54611 22.0007 3.26 22 3.96477C21.9993 4.66761 21.7433 5.36138 21.2071 5.8978Z" fill="#1C1C1C"/>
</svg>
