<svg width="20" height="20" viewBox="0 0 20 20" fill="none" xmlns="http://www.w3.org/2000/svg">
<rect width="20" height="20" fill="black" fill-opacity="0"/>
<rect width="20" height="20" fill="black" fill-opacity="0"/>
<path d="M10 0C15.5 0 20 4.5 20 10C20 15.5 15.5 20 10 20C4.5 20 0 15.4999 0 10C0 4.50007 4.5 0 10 0Z" fill="#DD4B39"/>
<rect width="12.3691" height="7.85992" fill="black" fill-opacity="0" transform="translate(3.81836 6.08545)"/>
<path d="M15.0625 8.3125V9.43752H16.1875V10.5625H15.0625V11.6876H13.9375V10.5625H12.8125V9.43752H13.9375V8.3125H15.0625Z" fill="white"/>
<path d="M4.93567 12.8124C3.43567 11.3124 3.43567 8.6874 4.99814 7.18747C6.12316 6.06246 7.74811 5.81249 9.18564 6.37496L9.74811 6.68747L10.3731 7.125L9.37313 8.125L8.99814 7.87503C8.12316 7.31256 6.87313 7.43751 6.06069 8.25002C5.12316 9.18754 5.06069 10.875 6.06069 11.875C6.99821 12.875 8.6857 12.875 9.56069 11.875C9.81065 11.6251 10.0607 11.25 10.1232 10.875V10.75H7.8732V9.50005H11.4357L11.4981 9.81256V10.6875C11.4357 11.5001 11.1232 12.3126 10.5606 12.875C9.06069 14.3124 6.43567 14.3124 4.93567 12.8124Z" fill="white"/>
</svg>
