<svg width="14" height="8" viewBox="0 0 14 8" fill="none" xmlns="http://www.w3.org/2000/svg">
<path fill-rule="evenodd" clip-rule="evenodd" d="M13.3541 7.35402C13.3076 7.40059 13.2525 7.43753 13.1917 7.46273C13.131 7.48794 13.0659 7.50092 13.0001 7.50092C12.9343 7.50092 12.8692 7.48794 12.8084 7.46273C12.7477 7.43753 12.6925 7.40059 12.6461 7.35402L7.00008 1.70702L1.35408 7.35402C1.3076 7.40051 1.25241 7.43739 1.19167 7.46255C1.13093 7.4877 1.06583 7.50065 1.00008 7.50065C0.93434 7.50065 0.869239 7.4877 0.808499 7.46255C0.74776 7.43739 0.692571 7.40051 0.646083 7.35402C0.599595 7.30753 0.562718 7.25234 0.53756 7.19161C0.512401 7.13087 0.499452 7.06577 0.499452 7.00002C0.499452 6.93428 0.512401 6.86918 0.53756 6.80844C0.562718 6.7477 0.599595 6.69251 0.646083 6.64602L6.64608 0.646022C6.69253 0.599459 6.7477 0.562516 6.80845 0.53731C6.86919 0.512103 6.93432 0.499128 7.00008 0.499128C7.06585 0.499128 7.13097 0.512103 7.19172 0.53731C7.25246 0.562516 7.30764 0.599459 7.35408 0.646022L13.3541 6.64602C13.4006 6.69247 13.4376 6.74764 13.4628 6.80839C13.488 6.86913 13.501 6.93425 13.501 7.00002C13.501 7.06579 13.488 7.13091 13.4628 7.19166C13.4376 7.2524 13.4006 7.30758 13.3541 7.35402Z" fill="#F60F1C"/>
</svg>
