<svg width="178" height="77" viewBox="0 0 178 77" fill="none" xmlns="http://www.w3.org/2000/svg">
<rect width="178" height="77" fill="white"/>
<path d="M178 0H0V77H178V0Z" fill="#F60F1C"/>
<path d="M36.8 48.3878H32V27.3605H44.15V31.8663H36.8V36.3121H43.25V40.818H36.8V48.3878ZM57.1063 37.8742C57.1063 34.7701 58.1363 32.1867 60.1963 30.1241C62.2763 28.0414 64.9663 27 68.2663 27C71.5463 27 74.2163 27.9913 76.2763 29.9739C78.3763 31.9565 79.4263 34.5899 79.4263 37.8742C79.4263 41.0383 78.3663 43.6417 76.2463 45.6843C74.1463 47.727 71.4863 48.7483 68.2663 48.7483C65.0063 48.7483 62.3263 47.757 60.2263 45.7744C58.1463 43.7919 57.1063 41.1584 57.1063 37.8742ZM62.2063 37.8742C62.2063 39.6565 62.7963 41.1684 63.9763 42.4101C65.1363 43.6316 66.5663 44.2424 68.2663 44.2424C70.1863 44.2424 71.6763 43.6517 72.7363 42.4701C73.7963 41.2485 74.3263 39.7165 74.3263 37.8742C74.3263 35.9717 73.7463 34.4397 72.5863 33.2782C71.4063 32.0966 69.9663 31.5059 68.2663 31.5059C66.5063 31.5059 65.0563 32.0966 63.9163 33.2782C62.7763 34.4597 62.2063 35.9917 62.2063 37.8742ZM92.0328 37.8742C92.0328 34.7701 93.0628 32.1867 95.1228 30.1241C97.2028 28.0414 99.8928 27 103.193 27C106.473 27 109.143 27.9913 111.203 29.9739C113.303 31.9565 114.353 34.5899 114.353 37.8742C114.353 41.0383 113.293 43.6417 111.173 45.6843C109.073 47.727 106.413 48.7483 103.193 48.7483C99.9328 48.7483 97.2528 47.757 95.1528 45.7744C93.0728 43.7919 92.0328 41.1584 92.0328 37.8742ZM97.1328 37.8742C97.1328 39.6565 97.7228 41.1684 98.9028 42.4101C100.063 43.6316 101.493 44.2424 103.193 44.2424C105.113 44.2424 106.603 43.6517 107.663 42.4701C108.723 41.2485 109.253 39.7165 109.253 37.8742C109.253 35.9717 108.673 34.4397 107.513 33.2782C106.333 32.0966 104.893 31.5059 103.193 31.5059C101.433 31.5059 99.9828 32.0966 98.8428 33.2782C97.7028 34.4597 97.1328 35.9917 97.1328 37.8742ZM128.97 48.3878H128.46V27.3605H128.88C129.78 27.3605 130.78 27.3505 131.88 27.3304C132.3 27.3304 132.76 27.3304 133.26 27.3304C133.78 27.3104 134.18 27.3004 134.46 27.3004C134.74 27.2804 134.95 27.2704 135.09 27.2704C139.03 27.2704 141.98 28.2516 143.94 30.2142C145.9 32.1767 146.88 34.67 146.88 37.6939C146.88 40.798 145.83 43.3713 143.73 45.414C141.65 47.4366 138.69 48.4479 134.85 48.4479C134.07 48.4479 133.2 48.4379 132.24 48.4179C131.28 48.3978 130.19 48.3878 128.97 48.3878ZM135.03 31.7762C134.25 31.7762 133.66 31.8063 133.26 31.8663V43.882C133.82 43.922 134.4 43.942 135 43.942C137.12 43.942 138.78 43.3913 139.98 42.2899C141.18 41.1885 141.78 39.6565 141.78 37.6939C141.78 35.8315 141.17 34.3796 139.95 33.3382C138.73 32.2969 137.09 31.7762 135.03 31.7762Z" fill="white"/>
</svg>
