<svg width="42" height="43" viewBox="0 0 42 43" fill="none" xmlns="http://www.w3.org/2000/svg">
<path fill-rule="evenodd" clip-rule="evenodd" d="M13.125 25.5312C13.125 26.2733 12.5373 26.875 11.8125 26.875C11.0877 26.875 10.5 26.2733 10.5 25.5312C10.5 24.7892 11.0877 24.1875 11.8125 24.1875C12.5373 24.1875 13.125 24.7892 13.125 25.5312ZM38.7188 24.1875H36.4219C35.8781 24.1875 35.4375 24.6389 35.4375 25.1953V25.5312C35.4375 26.2733 34.8498 26.875 34.125 26.875C33.4002 26.875 32.8125 26.2733 32.8125 25.5312V24.8594C32.8125 23.0038 34.2817 21.5 36.0938 21.5H38.0625C38.7873 21.5 39.375 20.8983 39.375 20.1562V17.4688C39.375 16.7267 38.7873 16.125 38.0625 16.125H36.0938C34.2817 16.125 32.8125 14.6212 32.8125 12.7656V12.0938C32.8125 11.7093 32.653 11.3648 32.3998 11.12C32.2822 11.0092 32.1537 10.916 32.0134 10.8569C32.0088 10.855 32.0044 10.8543 31.9999 10.8523C31.858 10.7939 31.7079 10.7709 31.5573 10.765C31.5355 10.7624 31.5256 10.7499 31.5 10.7499C30.0503 10.7499 28.875 9.54659 28.875 8.06242V5.375C28.875 3.89083 27.6997 2.6875 26.25 2.6875H8.96191C8.5995 2.6875 8.30566 2.98867 8.30566 3.35938C8.30566 3.56866 8.4018 3.75309 8.54856 3.87638L15.7359 9.39575C17.3377 10.6207 18.375 12.5767 18.375 14.7812V31.5781V32.25V34.9375V35.6094V39.6406C18.375 41.4962 16.9058 43 15.0938 43C14.3542 43 13.6723 42.7494 13.1234 42.3268C9.52457 39.5639 4.93369 36.0385 2.24429 33.9736C2.22731 33.9605 2.21132 33.9414 2.19434 33.9277C0.867398 32.952 0 31.363 0 29.5625V28.8906V6.71875C0 5.97666 0.587672 5.375 1.3125 5.375C2.03733 5.375 2.625 5.97666 2.625 6.71875V29.5625C2.625 30.4364 3.03294 31.2133 3.66417 31.7041L14.7034 40.1806C14.8124 40.2633 14.9477 40.3125 15.0938 40.3125C15.4562 40.3125 15.75 40.012 15.75 39.6406V14.1094C15.75 13.2348 15.3421 12.4586 14.7105 11.9678L5.63259 4.99707C5.00104 4.48334 4.59375 3.69271 4.59375 2.80298C4.59375 1.25515 5.81938 0 7.33154 0H26.25C29.1496 0 31.5 2.40666 31.5 5.375V7.45361C31.5 7.78821 31.739 8.06578 32.0518 8.11692C32.0535 8.11759 32.048 8.13204 32.0473 8.13792C32.1473 8.14774 32.2479 8.1438 32.3469 8.16152C34.1134 8.55851 35.4375 10.1661 35.4375 12.0938V12.4297C35.4375 12.9861 35.8781 13.4375 36.4219 13.4375H38.7188C40.5311 13.4375 42 14.9413 42 16.7969V20.8281C42 22.6837 40.5311 24.1875 38.7188 24.1875ZM1.3125 2.6875C0.587672 2.6875 0 2.08584 0 1.34375C0 0.601664 0.587672 0 1.3125 0C2.03733 0 2.625 0.601664 2.625 1.34375C2.625 2.08584 2.03733 2.6875 1.3125 2.6875ZM22.3125 32.25H26.25C27.6266 32.25 28.743 31.1615 28.8535 29.7816C28.8032 29.1622 28.5561 28.6019 28.1655 28.1735L22.4464 22.3576C20.5395 20.4049 20.5395 17.2397 22.4464 15.2878L25.908 11.7434L25.9131 11.7486C26.1736 11.4822 26.5337 11.3168 26.9318 11.3168C27.7274 11.3168 28.3724 11.9768 28.3724 12.7917C28.3724 13.1992 28.2112 13.5679 27.9503 13.835L27.9517 13.8363L24.0174 17.8643C23.4998 18.3938 23.4998 19.2527 24.0174 19.7822L29.9777 25.8848C30.907 26.8441 31.4834 28.1603 31.4972 29.6149C31.4696 32.5591 29.1323 34.9375 26.25 34.9375H22.3125C21.5877 34.9375 21 34.3358 21 33.5938C21 32.8517 21.5877 32.25 22.3125 32.25Z" fill="#E2110B"/>
</svg>
