<svg width="15" height="16" viewBox="0 0 15 16" fill="none" xmlns="http://www.w3.org/2000/svg">
<rect width="15.0002" height="16" fill="black" fill-opacity="0"/>
<rect width="15.0002" height="16" fill="black" fill-opacity="0"/>
<rect width="15.0002" height="16" fill="black" fill-opacity="0"/>
<rect width="6.36526" height="6.64196" fill="black" fill-opacity="0" transform="translate(0 4.68262)"/>
<rect width="6.36526" height="6.64196" fill="black" fill-opacity="0" transform="translate(0 4.68262)"/>
<path d="M4.98313 8.00308C4.98313 8.12021 4.97449 8.23734 4.96067 8.35447C4.96931 8.2914 4.97795 8.22653 4.98486 8.16346C4.95549 8.38871 4.89675 8.60855 4.81382 8.81939C4.83628 8.76172 4.86047 8.70406 4.88293 8.6464C4.8 8.85182 4.69288 9.04284 4.56331 9.22123C4.59959 9.17258 4.63587 9.12393 4.67215 9.07527C4.5374 9.25727 4.38191 9.41765 4.20914 9.55821C4.25579 9.52037 4.30243 9.48252 4.34908 9.44468C4.17977 9.57983 3.99491 9.69156 3.79796 9.77805C3.85324 9.75462 3.90853 9.7294 3.96381 9.70597C3.76168 9.79247 3.55263 9.85374 3.33495 9.88437C3.39542 9.87536 3.45761 9.86635 3.51808 9.85914C3.29521 9.88977 3.06889 9.88977 2.84602 9.85914C2.90649 9.86815 2.96869 9.87716 3.02915 9.88437C2.8132 9.85374 2.60242 9.79247 2.40029 9.70597C2.45557 9.7294 2.51086 9.75462 2.56614 9.77805C2.36919 9.69156 2.18606 9.57983 2.01502 9.44468C2.06167 9.48252 2.10831 9.52037 2.15496 9.55821C1.98047 9.41765 1.82671 9.25547 1.69195 9.07527C1.72823 9.12393 1.76451 9.17258 1.80079 9.22123C1.67122 9.04464 1.5641 8.85182 1.48117 8.6464C1.50363 8.70406 1.52782 8.76172 1.55028 8.81939C1.46735 8.60855 1.40861 8.39051 1.37924 8.16346C1.38788 8.22653 1.39652 8.2914 1.40343 8.35447C1.37406 8.12202 1.37406 7.88595 1.40343 7.6535C1.39479 7.71657 1.38615 7.78144 1.37924 7.84451C1.40861 7.61926 1.46735 7.39941 1.55028 7.18858C1.52782 7.24624 1.50363 7.30391 1.48117 7.36157C1.5641 7.15614 1.67122 6.96513 1.80079 6.78674C1.76451 6.83539 1.72823 6.88404 1.69195 6.9327C1.82671 6.7507 1.98219 6.59032 2.15496 6.44976C2.10831 6.4876 2.06167 6.52545 2.01502 6.56329C2.18433 6.42814 2.36919 6.31641 2.56614 6.22992C2.51086 6.25334 2.45557 6.27857 2.40029 6.302C2.60242 6.2155 2.81147 6.15423 3.02915 6.1236C2.96869 6.13261 2.90649 6.14162 2.84602 6.14883C3.06889 6.11819 3.29521 6.11819 3.51808 6.14883C3.45761 6.13982 3.39542 6.13081 3.33495 6.1236C3.5509 6.15423 3.76168 6.2155 3.96381 6.302C3.90853 6.27857 3.85324 6.25334 3.79796 6.22992C3.99491 6.31641 4.17804 6.42814 4.34908 6.56329C4.30243 6.52545 4.25579 6.4876 4.20914 6.44976C4.38363 6.59032 4.5374 6.7525 4.67215 6.9327C4.63587 6.88404 4.59959 6.83539 4.56331 6.78674C4.69288 6.96333 4.8 7.15614 4.88293 7.36157C4.86047 7.30391 4.83628 7.24624 4.81382 7.18858C4.89675 7.39941 4.95549 7.61746 4.98486 7.84451C4.97622 7.78144 4.96758 7.71657 4.96067 7.6535C4.97622 7.76882 4.98313 7.88595 4.98313 8.00308C4.98313 8.18869 5.05915 8.3815 5.18527 8.51305C5.30447 8.63739 5.50143 8.73289 5.67419 8.72388C6.04736 8.70586 6.36698 8.40673 6.36525 8.00308C6.3618 7.34355 6.17521 6.6642 5.80549 6.1254C5.60509 5.83528 5.3874 5.59201 5.11789 5.37397C4.84319 5.15232 4.55122 4.99195 4.22469 4.86761C3.62692 4.63875 2.93068 4.62614 2.31909 4.80814C1.7265 4.98294 1.1581 5.34874 0.765926 5.8497C0.651901 5.99386 0.541331 6.14342 0.449765 6.3056C0.356472 6.46958 0.28391 6.64258 0.214804 6.81917C0.0938684 7.12911 0.0351282 7.45708 0.00921336 7.79045C-0.0426163 8.45178 0.126694 9.14915 0.454948 9.71498C0.771109 10.2592 1.24967 10.7313 1.8077 10.9962C1.97356 11.0755 2.14287 11.1494 2.31909 11.2016C2.50395 11.2557 2.69226 11.2827 2.8823 11.3061C3.20537 11.3476 3.53536 11.3152 3.85497 11.2485C4.46311 11.1223 5.04705 10.7764 5.47378 10.3096C5.90051 9.84472 6.2184 9.23565 6.3117 8.59594C6.34107 8.39952 6.36525 8.2031 6.36525 8.00488C6.36698 7.62827 6.04564 7.26607 5.67419 7.28409C5.29929 7.3003 4.98659 7.59944 4.98313 8.00308Z" fill="#707070"/>
<rect width="5.3345" height="5.56283" fill="black" fill-opacity="0" transform="translate(9.66602)"/>
<rect width="5.3345" height="5.56283" fill="black" fill-opacity="0" transform="translate(9.66602)"/>
<path d="M13.6184 2.78455C13.6184 2.87645 13.6115 2.96835 13.6011 3.06025C13.6097 2.99718 13.6184 2.93231 13.6253 2.86924C13.6011 3.04764 13.5579 3.21883 13.4923 3.38461C13.5147 3.32695 13.5389 3.26928 13.5614 3.21162C13.4923 3.38101 13.4042 3.53778 13.2988 3.68374C13.3351 3.63509 13.3713 3.58644 13.4076 3.53778C13.304 3.67473 13.1865 3.79727 13.0569 3.90359C13.1035 3.86575 13.1502 3.8279 13.1968 3.79006C13.0569 3.90179 12.9066 3.99369 12.7442 4.06397C12.7995 4.04054 12.8548 4.01531 12.91 3.99189C12.7511 4.06036 12.5852 4.10541 12.4159 4.13064C12.4764 4.12163 12.5386 4.11262 12.5991 4.10541C12.4228 4.12884 12.2466 4.12884 12.0704 4.10541C12.1309 4.11442 12.1931 4.12343 12.2535 4.13064C12.0825 4.10541 11.9184 4.06036 11.7594 3.99189C11.8147 4.01531 11.87 4.04054 11.9253 4.06397C11.7629 3.99189 11.6126 3.89998 11.4726 3.79006C11.5193 3.8279 11.5659 3.86575 11.6126 3.90359C11.4813 3.79547 11.3638 3.67293 11.2619 3.53778C11.2981 3.58644 11.3344 3.63509 11.3707 3.68374C11.2636 3.53778 11.1755 3.38101 11.1081 3.21162C11.1306 3.26928 11.1548 3.32695 11.1772 3.38461C11.1116 3.21883 11.0684 3.04584 11.0442 2.86924C11.0528 2.93231 11.0615 2.99718 11.0684 3.06025C11.0459 2.87645 11.0459 2.69265 11.0684 2.50884C11.0597 2.57191 11.0511 2.63678 11.0442 2.69985C11.0684 2.52146 11.1116 2.35027 11.1772 2.18448C11.1548 2.24215 11.1306 2.29981 11.1081 2.35747C11.1772 2.18809 11.2653 2.03131 11.3707 1.88535C11.3344 1.934 11.2981 1.98266 11.2619 2.03131C11.3655 1.89436 11.483 1.77182 11.6126 1.66551C11.5659 1.70335 11.5193 1.74119 11.4726 1.77903C11.6126 1.66731 11.7629 1.57541 11.9253 1.50513C11.87 1.52856 11.8147 1.55378 11.7594 1.57721C11.9184 1.50873 12.0842 1.46368 12.2535 1.43846C12.1931 1.44747 12.1309 1.45648 12.0704 1.46368C12.2466 1.44026 12.4228 1.44026 12.5991 1.46368C12.5386 1.45467 12.4764 1.44566 12.4159 1.43846C12.587 1.46368 12.7511 1.50873 12.91 1.57721C12.8548 1.55378 12.7995 1.52856 12.7442 1.50513C12.9066 1.57721 13.0569 1.66911 13.1968 1.77903C13.1502 1.74119 13.1035 1.70335 13.0569 1.66551C13.1882 1.77363 13.3057 1.89616 13.4076 2.03131C13.3713 1.98266 13.3351 1.934 13.2988 1.88535C13.4059 2.03131 13.494 2.18809 13.5614 2.35747C13.5389 2.29981 13.5147 2.24215 13.4923 2.18448C13.5579 2.35027 13.6011 2.52326 13.6253 2.69985C13.6167 2.63678 13.608 2.57191 13.6011 2.50884C13.6115 2.60074 13.6167 2.69084 13.6184 2.78455C13.6201 2.97015 13.6944 3.16297 13.8205 3.29451C13.9397 3.41885 14.1367 3.51436 14.3094 3.50535C14.6826 3.48733 15.0022 3.18819 15.0005 2.78455C14.9971 2.23854 14.845 1.67091 14.5392 1.22402C14.3509 0.948312 14.1488 0.735677 13.8931 0.532051C13.684 0.364465 13.4473 0.249137 13.2003 0.153631C12.7027 -0.0373803 12.1188 -0.0463904 11.6091 0.104977C11.1185 0.250939 10.6434 0.551873 10.3186 0.96453C10.1112 1.22762 9.9644 1.48711 9.84173 1.80066C9.74153 2.05834 9.69661 2.33044 9.67415 2.60615C9.62923 3.15576 9.77263 3.74321 10.0473 4.21353C10.3099 4.66583 10.709 5.06588 11.1755 5.28392C11.3172 5.35059 11.4623 5.41546 11.6109 5.46051C11.7681 5.50737 11.9322 5.52899 12.0946 5.54881C12.3641 5.58125 12.6354 5.55422 12.8997 5.50016C13.4059 5.39744 13.8983 5.10372 14.2524 4.71629C14.6066 4.32886 14.8778 3.8207 14.9539 3.2873C14.9781 3.11972 15.0005 2.95213 15.0005 2.78275C15.0022 2.40613 14.6809 2.04393 14.3094 2.06195C13.9328 2.07997 13.6201 2.3791 13.6184 2.78455Z" fill="#707070"/>
<rect width="5.3345" height="5.56283" fill="black" fill-opacity="0" transform="translate(9.66602 10.4373)"/>
<rect width="5.3345" height="5.56283" fill="black" fill-opacity="0" transform="translate(9.66602 10.4373)"/>
<path d="M13.6184 13.2218C13.6184 13.3137 13.6115 13.4056 13.6011 13.4975C13.6097 13.4344 13.6184 13.3696 13.6253 13.3065C13.6011 13.4849 13.5579 13.6561 13.4923 13.8219C13.5147 13.7642 13.5389 13.7065 13.5614 13.6489C13.4923 13.8183 13.4042 13.975 13.2988 14.121C13.3351 14.0723 13.3713 14.0237 13.4076 13.975C13.304 14.112 13.1865 14.2345 13.0569 14.3408C13.1035 14.303 13.1502 14.2652 13.1968 14.2273C13.0569 14.339 12.9066 14.4309 12.7442 14.5012C12.7995 14.4778 12.8548 14.4526 12.91 14.4291C12.7511 14.4976 12.5852 14.5427 12.4159 14.5679C12.4764 14.5589 12.5386 14.5499 12.5991 14.5427C12.4228 14.5661 12.2466 14.5661 12.0704 14.5427C12.1309 14.5517 12.1931 14.5607 12.2535 14.5679C12.0825 14.5427 11.9184 14.4976 11.7594 14.4291C11.8147 14.4526 11.87 14.4778 11.9253 14.5012C11.7629 14.4291 11.6126 14.3372 11.4726 14.2273C11.5193 14.2652 11.5659 14.303 11.6126 14.3408C11.4813 14.2327 11.3638 14.1102 11.2619 13.975C11.2981 14.0237 11.3344 14.0723 11.3707 14.121C11.2636 13.975 11.1755 13.8183 11.1081 13.6489C11.1306 13.7065 11.1548 13.7642 11.1772 13.8219C11.1116 13.6561 11.0684 13.4831 11.0442 13.3065C11.0528 13.3696 11.0615 13.4344 11.0684 13.4975C11.0459 13.3137 11.0459 13.1299 11.0684 12.9461C11.0597 13.0092 11.0511 13.074 11.0442 13.1371C11.0684 12.9587 11.1116 12.7875 11.1772 12.6217C11.1548 12.6794 11.1306 12.7371 11.1081 12.7947C11.1772 12.6253 11.2653 12.4686 11.3707 12.3226C11.3344 12.3713 11.2981 12.4199 11.2619 12.4686C11.3655 12.3316 11.483 12.2091 11.6126 12.1028C11.5659 12.1406 11.5193 12.1784 11.4726 12.2163C11.6126 12.1046 11.7629 12.0127 11.9253 11.9424C11.87 11.9658 11.8147 11.991 11.7594 12.0145C11.9184 11.946 12.0842 11.9009 12.2535 11.8757C12.1931 11.8847 12.1309 11.8937 12.0704 11.9009C12.2466 11.8775 12.4228 11.8775 12.5991 11.9009C12.5386 11.8919 12.4764 11.8829 12.4159 11.8757C12.587 11.9009 12.7511 11.946 12.91 12.0145C12.8548 11.991 12.7995 11.9658 12.7442 11.9424C12.9066 12.0145 13.0569 12.1064 13.1968 12.2163C13.1502 12.1784 13.1035 12.1406 13.0569 12.1028C13.1882 12.2109 13.3057 12.3334 13.4076 12.4686C13.3713 12.4199 13.3351 12.3713 13.2988 12.3226C13.4059 12.4686 13.494 12.6253 13.5614 12.7947C13.5389 12.7371 13.5147 12.6794 13.4923 12.6217C13.5579 12.7875 13.6011 12.9605 13.6253 13.1371C13.6167 13.074 13.608 13.0092 13.6011 12.9461C13.6115 13.038 13.6167 13.1299 13.6184 13.2218C13.6201 13.4074 13.6944 13.6002 13.8205 13.7318C13.9397 13.8561 14.1367 13.9516 14.3094 13.9426C14.6826 13.9246 15.0022 13.6255 15.0005 13.2218C14.9971 12.6758 14.845 12.1082 14.5392 11.6613C14.3509 11.3856 14.1488 11.1729 13.8931 10.9693C13.684 10.8017 13.4473 10.6864 13.2003 10.5909C12.7027 10.3999 12.1188 10.3909 11.6091 10.5422C11.1185 10.6882 10.6434 10.9891 10.3186 11.4018C10.1112 11.6649 9.9644 11.9244 9.84173 12.2379C9.74153 12.4956 9.69661 12.7677 9.67415 13.0434C9.62923 13.593 9.77263 14.1805 10.0473 14.6508C10.3099 15.1031 10.709 15.5031 11.1755 15.7212C11.3172 15.7878 11.4623 15.8527 11.6109 15.8978C11.7681 15.9446 11.9322 15.9662 12.0946 15.9861C12.3641 16.0185 12.6354 15.9915 12.8997 15.9374C13.4059 15.8347 13.8983 15.541 14.2524 15.1535C14.6066 14.7661 14.8778 14.258 14.9539 13.7246C14.9781 13.557 15.0005 13.3894 15.0005 13.22C15.0022 12.8434 14.6809 12.4812 14.3094 12.4992C13.9328 12.519 13.6201 12.8182 13.6184 13.2218Z" fill="#707070"/>
<rect width="6.70386" height="10.174" fill="black" fill-opacity="0" transform="translate(4.4707 2.91724)"/>
<rect width="6.6953" height="4.10059" fill="black" fill-opacity="0" transform="translate(4.47656 2.91724)"/>
<rect width="6.6953" height="4.10059" fill="black" fill-opacity="0" transform="translate(4.47656 2.91724)"/>
<path d="M5.51348 6.92392C5.6897 6.83562 5.86592 6.74733 6.04041 6.65903C6.46369 6.44639 6.88523 6.23556 7.30851 6.02292C7.82162 5.76524 8.33646 5.50755 8.84958 5.24987C9.29186 5.02822 9.73414 4.80657 10.1764 4.58493C10.3906 4.47681 10.6101 4.3759 10.8226 4.26057C10.826 4.25877 10.8295 4.25697 10.8312 4.25516C10.9798 4.18128 11.1059 3.98486 11.1491 3.82449C11.194 3.65149 11.1733 3.42264 11.08 3.26947C10.985 3.1163 10.8433 2.97935 10.6671 2.9379C10.477 2.89285 10.3094 2.92349 10.135 3.00998C9.95873 3.09828 9.78251 3.18658 9.60802 3.27488C9.18474 3.48751 8.76319 3.69835 8.33992 3.91098C7.82681 4.16867 7.31196 4.42635 6.79885 4.68404C6.35657 4.90568 5.91429 5.12733 5.47201 5.34898C5.25778 5.4571 5.03837 5.55801 4.82587 5.67334C4.82241 5.67514 4.81896 5.67694 4.81723 5.67874C4.66865 5.75262 4.54253 5.94904 4.49934 6.10942C4.45442 6.28241 4.47516 6.51126 4.56845 6.66443C4.66347 6.8176 4.80514 6.95456 4.98136 6.996C5.16967 7.04285 5.33726 7.01222 5.51348 6.92392Z" fill="#707070"/>
<rect width="6.70386" height="4.10669" fill="black" fill-opacity="0" transform="translate(4.4707 8.98462)"/>
<rect width="6.70386" height="4.10669" fill="black" fill-opacity="0" transform="translate(4.4707 8.98462)"/>
<path d="M4.81565 10.3262C4.99187 10.4145 5.16809 10.5028 5.34259 10.5911C5.76586 10.8037 6.18741 11.0145 6.61068 11.2272C7.1238 11.4849 7.63864 11.7425 8.15175 12.0002C8.59403 12.2219 9.03631 12.4435 9.47859 12.6652C9.69455 12.7733 9.90878 12.8832 10.1247 12.9895C10.1282 12.9913 10.1316 12.9931 10.1334 12.9949C10.3027 13.0796 10.4789 13.1211 10.6655 13.067C10.8262 13.0202 10.9989 12.8922 11.0784 12.7354C11.1631 12.5679 11.2062 12.366 11.1475 12.1804C11.0939 12.0092 10.9903 11.8308 10.8296 11.7498C10.6534 11.6615 10.4772 11.5732 10.3027 11.4849C9.87941 11.2722 9.45786 11.0614 9.03458 10.8488C8.52147 10.5911 8.00663 10.3334 7.49352 10.0757C7.05124 9.85405 6.60896 9.63241 6.16668 9.41076C5.95072 9.30264 5.73649 9.19272 5.52053 9.0864C5.51708 9.0846 5.51362 9.0828 5.5119 9.081C5.34259 8.9963 5.16637 8.95486 4.97978 9.00892C4.81911 9.05577 4.64634 9.18371 4.56687 9.34049C4.48221 9.50807 4.43902 9.70989 4.49776 9.8955C4.55132 10.0667 4.65498 10.2469 4.81565 10.3262Z" fill="#707070"/>
</svg>
