<svg width="62" height="62" viewBox="0 0 62 62" fill="none" xmlns="http://www.w3.org/2000/svg">
<path fill-rule="evenodd" clip-rule="evenodd" d="M58.082 22.8328L50.336 30.5805C49.9819 31.0452 49.4271 31.3474 48.7976 31.3474C47.7268 31.3474 46.8577 30.4812 46.8577 29.4095C46.8577 28.8206 47.1275 28.2991 47.5421 27.944L55.3602 20.1262C59.0826 16.401 59.0826 10.3658 55.3602 6.64252C51.6347 2.9173 45.5996 2.9173 41.8733 6.64252L33.7835 14.7329C31.9828 16.5326 31.0664 18.87 31.0039 21.2301C31.0067 21.2595 31.0143 21.2898 31.0143 21.3219C31.0143 22.3908 30.1472 23.2598 29.0765 23.2598C28.0047 23.2598 27.1357 22.3907 27.1357 21.3219C27.1357 21.2026 27.1508 21.0853 27.1708 20.9697C27.2938 17.7169 28.5795 14.5058 31.0618 12.0236L39.1667 3.9179C44.3907 -1.30597 52.8582 -1.30597 58.0821 3.9179C63.306 9.14165 63.306 17.6089 58.082 22.8328ZM15.5024 44.5867C15.5024 43.515 16.3715 42.6488 17.4426 42.6488C18.514 42.6488 19.3801 43.515 19.3801 44.5867C19.3801 45.6575 18.514 46.5266 17.4426 46.5266C16.3715 46.5266 15.5024 45.6575 15.5024 44.5867ZM21.3204 31.015C21.2877 31.015 21.2579 31.0075 21.2282 31.0055C18.8685 31.068 16.5311 31.9844 14.7309 33.784L6.64026 41.8746C2.91723 45.5978 2.91723 51.635 6.64026 55.3584C10.3636 59.0816 16.4014 59.0816 20.1243 55.3584L28.2149 47.2678C30.0297 45.453 30.9518 43.0882 30.9992 40.7082H31.0143C31.0143 39.6375 31.8824 38.7713 32.9541 38.7713C34.023 38.7713 34.8921 39.6375 34.8921 40.7082C34.8921 40.888 34.859 41.0603 34.8117 41.2279C34.6451 44.4116 33.369 47.5453 30.9386 49.9744L22.8309 58.0827C17.6073 63.3058 9.13999 63.3058 3.91589 58.0827C-1.3053 52.8589 -1.3053 44.3916 3.91589 39.1679L12.0236 31.0622C14.5036 28.581 17.7149 27.2944 20.9682 27.1723C21.0832 27.1524 21.2005 27.1372 21.3203 27.1372C22.3916 27.1372 23.2578 28.0063 23.2578 29.075C23.2579 30.1459 22.3917 31.015 21.3204 31.015ZM40.7098 31.015C41.7786 31.015 42.6477 31.8841 42.6477 32.9528C42.6477 34.0245 41.7786 34.8926 40.7098 34.8926C39.639 34.8926 38.7699 34.0245 38.7699 32.9528C38.7699 31.8841 39.639 31.015 40.7098 31.015ZM21.9845 40.0445C21.228 39.2881 21.228 38.0592 21.9845 37.3028L43.1171 16.1708C43.8764 15.4115 45.1025 15.4115 45.8617 16.1708C46.6181 16.9271 46.6181 18.1532 45.8617 18.9124L24.7263 40.0445C23.9698 40.8011 22.7439 40.8011 21.9845 40.0445Z" fill="#E2110B"/>
</svg>
