<svg width="51" height="62" viewBox="0 0 51 62" fill="none" xmlns="http://www.w3.org/2000/svg">
<path fill-rule="evenodd" clip-rule="evenodd" d="M46.2301 55.2096L42.5333 55.2068C42.5078 55.2087 42.4881 55.2153 42.4597 55.2153C41.7996 55.2153 41.2205 55.5513 40.8727 56.0587L38.3621 59.8746C38.3386 59.9081 38.3188 59.9299 38.2934 59.9691C38.1274 60.2233 37.9341 60.4642 37.7116 60.6871C35.967 62.4376 33.1396 62.4376 31.395 60.6871C31.1234 60.414 30.8934 60.1149 30.7067 59.7973C30.6681 59.732 30.6378 59.6904 30.6038 59.6412L27.5125 54.2659L27.5248 54.2584C27.3551 53.9697 27.2504 53.637 27.2504 53.2769C27.2504 52.2065 28.1152 51.3385 29.1818 51.3385C29.9014 51.3385 30.5219 51.7379 30.8538 52.3238L30.8547 52.3233L33.567 57.0384C33.8319 57.381 34.2383 57.6082 34.7042 57.6082C35.2475 57.6082 35.7208 57.3081 35.9689 56.8638L37.7059 53.7177C38.5471 52.2956 40.0881 51.3387 41.8562 51.3387C41.8797 51.3387 41.8958 51.3359 41.9185 51.3359L46.4809 51.3312C46.9958 51.3099 47.4088 50.8915 47.4088 50.3696C47.4088 50.1988 47.3645 50.0384 47.2872 49.8987C47.2835 49.8915 47.2995 49.8991 47.2985 49.8939L44.1384 44.3999L44.1535 44.3905C44.0016 44.1226 43.9084 43.817 43.9084 43.4866C43.9084 42.4704 44.7288 41.6466 45.7415 41.6466C46.3677 41.6466 46.9195 41.9627 47.2504 42.444L47.2523 42.4426L47.2598 42.4558C47.2645 42.4624 47.2673 42.4695 47.2712 42.4762L50.3455 47.9162C50.3558 47.9366 50.3549 47.9489 50.3681 47.9716C50.7699 48.6786 51 49.4975 51 50.3696C51.0001 53.0255 48.8687 55.1774 46.2301 55.2096ZM30.3888 16.3857C30.3888 15.3152 31.2536 14.4472 32.3202 14.4472C32.8541 14.4472 33.3369 14.6645 33.6857 15.0152L33.6941 15.0066C35.7915 17.1117 37.0882 20.0194 37.0882 23.2309C37.0882 29.6543 31.8996 34.8615 25.5 34.8615C19.1004 34.8615 13.9118 29.6543 13.9118 23.2309C13.9118 16.8074 19.1004 11.6002 25.5 11.6002C26.5666 11.6002 27.4314 12.4681 27.4314 13.5387C27.4314 14.6093 26.5666 15.4771 25.5 15.4771C21.2337 15.4771 17.7746 18.9489 17.7746 23.231C17.7746 27.5135 21.2337 30.9847 25.5 30.9847C29.7663 30.9847 33.2254 27.5133 33.2254 23.231C33.2254 21.1194 32.3815 19.2069 31.0177 17.8084C30.633 17.4544 30.3888 16.9504 30.3888 16.3857ZM4.25501 27.1078C5.32156 27.1078 6.18639 27.9757 6.18639 29.0463C6.18639 30.1168 5.32168 30.9847 4.25501 30.9847C3.18833 30.9847 2.32362 30.1168 2.32362 29.0463C2.32362 27.9757 3.18833 27.1078 4.25501 27.1078ZM47.9747 25.8229C49.8325 30.3236 47.7021 35.4839 43.218 37.3485L41.9637 37.8701C41.8289 37.9449 41.6733 38.0225 41.4734 38.1057C40.9132 38.3386 40.4992 38.7778 40.2842 39.2992C40.2805 39.3092 40.2711 39.3077 40.2664 39.3163L39.5656 41.0139C37.7088 45.5151 32.5673 47.6523 28.0822 45.7881L26.8713 45.2846C26.7157 45.2416 26.5412 45.1849 26.3243 45.0949C25.7641 44.8615 25.1625 44.8786 24.6429 45.0949C24.6202 45.1038 24.608 45.0916 24.5881 45.0939L22.9181 45.7881C18.4329 47.6524 13.2913 45.5151 11.4345 41.0139L11.0959 40.1939C10.9526 39.8381 10.6056 39.5867 10.2001 39.5867C9.82668 39.5867 9.50321 39.7991 9.34287 40.1096C9.33913 40.1158 9.3372 40.1029 9.33346 40.1029L3.70158 49.8936C3.70062 49.8988 3.71666 49.8911 3.71292 49.8983C3.63558 50.0379 3.59131 50.1985 3.59131 50.3692C3.59131 50.8913 4.00429 51.3096 4.51923 51.3308L9.08166 51.3356C9.10434 51.3356 9.12039 51.3383 9.14392 51.3383C10.9112 51.3383 12.4531 52.2952 13.2942 53.7173L15.0313 56.8635C15.2794 57.3079 15.7527 57.6078 16.2959 57.6078C16.7617 57.6078 17.1682 57.3806 17.4333 57.0381L21.7987 49.4484L21.8137 49.4564C22.1401 48.8488 22.7728 48.4304 23.5084 48.4304C24.575 48.4304 25.4398 49.2984 25.4398 50.3689C25.4398 50.7011 25.3493 51.0092 25.2021 51.2823L25.204 51.2832L25.1691 51.3428C25.1446 51.3845 25.1248 51.4285 25.0974 51.4683L20.3963 59.6409C20.3623 59.69 20.3321 59.7317 20.2935 59.7969C20.1058 60.1146 19.8767 60.4137 19.6051 60.6867C17.8605 62.4373 15.0331 62.4373 13.2885 60.6867C13.066 60.4638 12.8726 60.2229 12.7067 59.9688C12.6813 59.9295 12.6615 59.9077 12.6369 59.8742L10.1275 56.0588C9.77951 55.5515 9.20038 55.2149 8.5403 55.2149C8.51206 55.2149 8.49228 55.2082 8.4667 55.2064L4.76995 55.2092C2.1313 55.177 -7.73216e-08 53.0252 -7.73216e-08 50.3687C-7.73216e-08 49.4966 0.230082 48.6778 0.63185 47.9707C0.645001 47.948 0.644157 47.9357 0.654533 47.9154L6.12993 38.226C6.1327 38.2213 6.13934 38.2208 6.14308 38.2156C6.97859 36.7712 8.53656 35.8001 10.3207 35.8001C12.2682 35.8001 13.9392 36.9625 14.7021 38.6292L15.1906 39.8133C16.1478 42.1321 18.7969 43.2329 21.1064 42.2728L23.1368 41.4289C23.1991 41.4185 23.2623 41.4076 23.3254 41.3816C24.6645 40.825 26.2139 40.7811 27.6577 41.3816C27.7737 41.4297 27.8803 41.4597 27.9783 41.4761L29.8936 42.2727C32.2033 43.2329 34.8523 42.1321 35.8094 39.8132L36.6798 37.7038C36.6978 37.6711 36.7224 37.6443 36.7365 37.6082C37.291 36.2651 38.3556 35.134 39.8004 34.534C39.8985 34.4927 39.9768 34.445 40.0513 34.3966L42.0223 33.577C44.3327 32.6167 45.4295 29.9583 44.4724 27.6394L43.568 25.4477C43.5652 25.4393 43.5652 25.4307 43.5614 25.4217C43.0078 24.0786 42.9635 22.5234 43.5614 21.0744C43.5859 21.0162 43.5935 20.967 43.6094 20.913L44.4723 18.8208C45.4295 16.5018 44.3327 13.8436 42.0222 12.8833L39.7909 11.9557C38.4575 11.3982 37.3352 10.3325 36.7393 8.88724C36.7318 8.87017 36.7232 8.86024 36.7157 8.84413L35.8094 6.6481C34.8522 4.32965 32.2031 3.22843 29.8936 4.18906L27.6869 5.10622C27.6785 5.10961 27.6691 5.10913 27.6605 5.11288C26.3222 5.66894 24.7728 5.71302 23.3291 5.11288L21.1064 4.18906C18.7969 3.22831 16.1478 4.32965 15.1906 6.6481L14.3069 8.79049C14.2881 8.8227 14.2645 8.8497 14.2494 8.88615C13.6949 10.2292 12.6303 11.3598 11.1864 11.9603C11.1694 11.9675 11.16 11.9765 11.144 11.9835L8.97778 12.8842C6.66731 13.8444 5.57047 16.5027 6.52771 18.8216L7.18792 20.4226L7.17284 20.4293C7.29168 20.6829 7.36335 20.9632 7.36335 21.2621C7.36335 22.3497 6.48537 23.2309 5.4018 23.2309C4.57377 23.2309 3.86844 22.714 3.58081 21.9857L3.02533 20.6387C1.16754 16.1381 3.29788 10.9778 7.78212 9.1132L9.39378 8.44356C9.43625 8.42467 9.46738 8.40711 9.51359 8.38822C10.0738 8.15487 10.4877 7.71566 10.7027 7.19472C10.7065 7.18431 10.7159 7.18624 10.7206 7.17716L11.4345 5.44783C13.2913 0.946787 18.4329 -1.19051 22.9181 0.673721L24.6627 1.39919C25.2154 1.62878 25.8066 1.61365 26.3205 1.40634L28.0823 0.673721C32.5674 -1.19051 37.7089 0.946787 39.5658 5.44783L40.2429 7.08864C40.2617 7.13078 40.2787 7.16202 40.2976 7.2084C40.5201 7.74509 40.9313 8.14264 41.4198 8.36545L43.2182 9.1132C47.7024 10.9778 49.8327 16.1382 47.9749 20.6387L47.4167 21.9909C47.3771 22.1158 47.3262 22.255 47.262 22.4125C47.033 22.9666 47.0481 23.5606 47.2545 24.077L47.9747 25.8229Z" fill="#E2110B"/>
</svg>
