<svg width="67" height="63" viewBox="0 0 67 63" fill="none" xmlns="http://www.w3.org/2000/svg">
<path fill-rule="evenodd" clip-rule="evenodd" d="M64.9073 46.1999C63.751 46.1999 62.8125 45.2585 62.8125 44.0999C62.8125 42.9412 63.751 41.9999 64.9073 41.9999C66.0615 41.9999 67 42.9412 67 44.0999C67 45.2585 66.0615 46.1999 64.9073 46.1999ZM58.625 63H8.37552C3.74847 63 0 59.2389 0 54.5999V38.8148C0 35.9171 2.34317 33.5669 5.23385 33.5669C6.54454 33.5669 7.71207 34.0898 8.66119 34.8487C8.68828 34.8692 8.69652 34.861 8.71798 34.8734C10.894 36.6986 13.6901 37.7978 16.751 37.7978H25.126H25.512H25.6495C27.4616 37.7978 29.0605 38.7227 29.9985 40.1297C30.0205 40.1604 30.0445 40.1727 30.069 40.1953C30.8241 41.2822 32.078 42 33.499 42C34.9221 42 36.1765 41.2822 36.931 40.1953C36.9556 40.1727 36.9801 40.1604 37.0015 40.1297C37.9401 38.7227 39.539 37.7978 41.3505 37.7978H41.4886H41.874H50.249C56.3809 37.7978 61.4804 33.3886 62.5835 27.5597C62.7205 27.1454 62.8125 26.7096 62.8125 26.2503V20.9982C62.8125 18.6796 60.9386 16.8001 58.625 16.8001H40.8281H26.1724H8.37552C6.06193 16.8001 4.18802 18.6796 4.18802 20.9982V27.2992C4.18802 28.46 3.2495 29.3983 2.0927 29.3983C0.938523 29.3982 0 28.46 0 27.2992V20.9982C0 16.3593 3.74847 12.6001 8.37552 12.6001H17.7969H21.0438H27.2188H28.2646H38.7354H39.7812H45.9562H49.2031H58.625C63.249 12.6001 67 16.3593 67 20.9982V25.1982C67 29.4577 65.4093 33.3332 62.8044 36.2944C62.4322 36.7189 62.0356 37.125 61.6236 37.5085C61.599 37.529 61.5746 37.5515 61.5531 37.572C61.1626 37.9289 60.7577 38.2673 60.3376 38.5892C60.2802 38.6323 60.2241 38.6753 60.1668 38.7164C59.7814 39.0015 59.3878 39.268 58.9778 39.5182C58.8786 39.5817 58.7754 39.6433 58.67 39.7027C58.301 39.9182 57.9186 40.1212 57.5301 40.312C57.3869 40.3817 57.2469 40.4514 57.1038 40.517C56.7184 40.6892 56.3197 40.8472 55.9199 40.9907C55.7767 41.042 55.6418 41.0953 55.4997 41.1445C55.1082 41.2737 54.7064 41.3823 54.3026 41.4829C54.1298 41.5259 53.9621 41.5792 53.7873 41.6182C53.3641 41.7064 52.9326 41.772 52.498 41.8315C52.3468 41.852 52.2015 41.8807 52.0481 41.8992C51.4572 41.9627 50.8581 41.9997 50.2488 41.9997H42.8553C42.1162 41.9997 41.467 42.3854 41.0948 42.9636C41.0785 42.9883 41.0519 43.0026 41.016 43.0108C39.9405 44.9098 37.9266 46.1997 35.5935 46.1997H31.406C29.0736 46.1997 27.059 44.9098 25.9834 43.0108C25.9481 43.0026 25.921 42.9882 25.9052 42.9636C25.533 42.3854 24.8829 41.9997 24.1442 41.9997H16.7507C12.6004 41.9997 8.82804 40.4616 5.90516 37.9555C5.93997 38.0171 5.9507 38.0478 5.92099 38.0233C5.73805 37.8633 5.4978 37.7669 5.23346 37.7669C4.65637 37.7669 4.18763 38.2365 4.18763 38.8148V54.5999C4.18763 56.9194 6.06154 58.8 8.37513 58.8H58.625C60.9386 58.8 62.8125 56.9194 62.8125 54.5999V52.4999C62.8125 51.3412 63.751 50.3999 64.9073 50.3999C66.0615 50.3999 67 51.3412 67 52.4999V54.5999C67 59.2389 63.249 63 58.625 63ZM43.9688 8.4C42.8125 8.4 41.874 7.45867 41.874 6.29895C41.874 5.13831 40.9386 4.2 39.7812 4.2H27.2188C26.062 4.2 25.126 5.13818 25.126 6.29895C25.126 7.45881 24.1875 8.4 23.0312 8.4C21.8739 8.4 20.9385 7.45867 20.9385 6.29895V5.24895C20.9385 2.35016 23.2817 0 26.1724 0H40.8281C43.7183 0 46.0615 2.35016 46.0615 5.24908V6.29908C46.0615 7.45881 45.1261 8.4 43.9688 8.4Z" fill="#1C1C1C"/>
</svg>
