<svg width="71" height="62" viewBox="0 0 71 62" fill="none" xmlns="http://www.w3.org/2000/svg">
<path fill-rule="evenodd" clip-rule="evenodd" d="M64.3449 35.4297C63.1196 35.4297 62.125 36.4211 62.125 37.6418V38.75C62.125 41.8077 59.6407 44.2857 56.5791 44.2857C55.3668 44.2857 54.2466 43.8986 53.3345 43.2402C53.3322 43.2402 53.3344 43.2402 53.3322 43.2402L48.0541 39.2906C47.9924 39.243 47.9436 39.2063 47.8819 39.1587C45.7498 37.5434 44.3749 34.9853 44.3749 32.106V27.6797C44.3749 24.622 41.8918 22.1418 38.828 22.1418H9.98493C6.92111 22.1418 4.43584 24.622 4.43584 27.6797V43.1797C4.43584 45.6038 6.00782 47.6397 8.18441 48.391C8.27164 48.5954 8.48616 48.7154 8.87403 48.7154C10.517 48.7154 13.3126 51.1923 13.3126 54.25V56.4654C13.3126 57.0751 13.8088 57.5714 14.4209 57.5714C14.656 57.5714 14.8727 57.4979 15.0535 57.3735C15.0563 57.3735 15.0535 57.3757 15.0535 57.3757L24.3842 50.3923C25.7774 49.3393 27.514 48.7154 29.3991 48.7154H37.7185C38.9438 48.7154 39.9372 49.7057 39.9372 50.9297C39.9372 52.1503 38.9438 53.1418 37.7185 53.1418H29.9523C28.6837 53.1418 27.5119 53.5666 26.5798 54.2857L17.6685 60.9556H17.6662C16.753 61.6129 15.6328 62 14.421 62C11.3572 62 8.87417 59.523 8.87417 56.4654V55.356C8.87417 54.1354 7.88128 53.1418 6.65542 53.1418C6.41052 53.1418 6.35908 52.9991 6.42245 52.7893C2.71547 51.7275 0 48.3272 0 44.2857V26.5714C0 21.679 3.97226 17.7154 8.87403 17.7154H39.9372C44.8386 17.7154 48.8135 21.6791 48.8135 26.5714V32.106C48.8135 33.5581 49.5122 34.8469 50.5924 35.6546L55.9454 39.6615C55.9486 39.6615 55.9431 39.6592 55.9454 39.6592C56.1252 39.7835 56.344 39.856 56.5791 39.856C57.1912 39.856 57.6874 39.3609 57.6874 38.75V36.5357C57.6874 33.4781 60.4824 31 62.125 31C64.2647 31 66.5614 28.523 66.5614 25.4654V9.96539C66.5614 6.90663 64.0794 4.42968 61.0155 4.42968H32.171C29.1072 4.42968 26.6246 6.90663 26.6246 9.96539V11.0714C26.6246 12.2943 25.6317 13.2857 24.4053 13.2857C23.1794 13.2857 22.1865 12.2943 22.1865 11.0714V8.85604C22.1865 3.96468 26.161 0 31.0628 0H62.125C67.0273 0 71 3.96468 71 8.85604V26.5714C71 31.4628 67.4888 35.4297 64.3449 35.4297ZM46.5936 44.2857C47.8178 44.2857 48.8135 45.2772 48.8135 46.5C48.8135 47.7239 47.8178 48.7154 46.5936 48.7154C45.3683 48.7154 44.3747 47.7239 44.3747 46.5C44.3747 45.2772 45.3683 44.2857 46.5936 44.2857Z" fill="#1C1C1C"/>
</svg>
