<svg width="38" height="38" viewBox="0 0 38 38" fill="none" xmlns="http://www.w3.org/2000/svg">
<path fill-rule="evenodd" clip-rule="evenodd" d="M5.93809 30.8749C5.2823 30.8749 4.75 30.3426 4.75 29.6874C4.75 29.0322 5.2823 28.4999 5.93809 28.4999H8.31198C8.96778 28.4999 9.50007 29.0322 9.50007 29.6874C9.50007 30.3426 8.96778 30.8749 8.31198 30.8749H5.93809ZM13.0621 30.8749C12.4074 30.8749 11.8751 30.3426 11.8751 29.6874C11.8751 29.0322 12.4074 28.4999 13.0621 28.4999H15.4371C16.0934 28.4999 16.6257 29.0322 16.6257 29.6874C16.6257 30.3426 16.0934 30.8749 15.4371 30.8749H13.0621ZM19.0007 29.6874C19.0007 29.0322 19.531 28.4999 20.1874 28.4999C20.8437 28.4999 21.376 29.0322 21.376 29.6874C21.376 30.3426 20.8437 30.8749 20.1874 30.8749C19.531 30.8749 19.0007 30.3426 19.0007 29.6874ZM10.687 7.12507H34.7854H35.0312C36.671 7.12507 38 8.45404 38 10.0938V18.999C38 21.623 35.8743 23.7499 33.25 23.7499H32.0624C31.4072 23.7499 30.8749 24.2822 30.8749 24.9374V33.25C30.8749 35.8732 28.7492 38 26.1261 38H4.75C2.12681 38 0 35.8732 0 33.25V18.999C0 16.3764 2.12681 14.249 4.75 14.249H26.126C28.1265 14.249 29.8196 15.4938 30.5212 17.2467C30.5548 17.3076 30.5827 17.372 30.6059 17.4375C30.6059 17.4392 30.6071 17.441 30.6071 17.4421C30.6454 17.5586 30.6708 17.6821 30.6708 17.812C30.6708 18.4684 30.1385 18.9989 29.4833 18.9989C28.9719 18.9989 28.5393 18.673 28.3723 18.219L28.3584 18.2236C28.036 17.2971 27.1628 16.6238 26.126 16.6238H4.75C3.43781 16.6238 2.375 17.6884 2.375 18.9988V33.25C2.375 34.5616 3.43789 35.625 4.75 35.625H26.126C27.4364 35.625 28.4999 34.5616 28.4999 33.25V24.3425C28.4999 22.7026 29.83 21.3737 31.4698 21.3737H33.25C34.5616 21.3737 35.625 20.3114 35.625 18.999V13.062C35.625 12.4062 35.0939 11.8739 34.4375 11.8739H30.8749H10.3396H10.0938C8.45404 11.8739 7.12507 10.5449 7.12507 8.90514V4.75C7.12507 2.12562 9.25248 0 11.8751 0H33.25C35.2504 0 36.9447 1.24316 37.6463 2.99606C37.6799 3.05692 37.7077 3.12134 37.731 3.1868C37.731 3.18851 37.7321 3.19029 37.7321 3.19141C37.7704 3.30793 37.7971 3.43143 37.7971 3.56191C37.7971 4.2177 37.2648 4.75 36.6084 4.75C36.0958 4.75 35.6644 4.42411 35.4974 3.9684L35.4835 3.973C35.1611 3.04475 34.2879 2.375 33.25 2.375H11.8751C10.5629 2.375 9.50007 3.43789 9.50007 4.75V5.93691C9.50007 6.59278 10.0324 7.12507 10.687 7.12507Z" fill="#707070"/>
</svg>
